%YAML 1.1
%TAG !u! tag:unity3d.com,2011:
--- !u!114 &11400000
MonoBehaviour:
  m_ObjectHideFlags: 0
  m_CorrespondingSourceObject: {fileID: 0}
  m_PrefabInternal: {fileID: 0}
  m_GameObject: {fileID: 0}
  m_Enabled: 1
  m_EditorHideFlags: 0
  m_Script: {fileID: 11500000, guid: 36baaa8bdcb9d8b49b9199833965d2c3, type: 3}
  m_Name: State Driven Camera Blends
  m_EditorClassIdentifier: 
  m_CustomBlends:
  - m_From: Virtual Camera Idle
    m_To: Virtual Camera Run
    m_Blend:
      m_Style: 1
      m_Time: 3
  - m_From: Virtual Camera Run
    m_To: Virtual Camera Idle
    m_Blend:
      m_Style: 1
      m_Time: 1
