%YAML 1.1
%TAG !u! tag:unity3d.com,2011:
--- !u!1001 &2980452480305764284
PrefabInstance:
  m_ObjectHideFlags: 0
  serializedVersion: 2
  m_Modification:
    m_TransformParent: {fileID: 0}
    m_Modifications:
    - target: {fileID: 3987327791089406012, guid: 7a84c41981094154285909f975a74d83,
        type: 3}
      propertyPath: m_Name
      value: Monster Rare 2
      objectReference: {fileID: 0}
    - target: {fileID: 6910339935580272047, guid: 7a84c41981094154285909f975a74d83,
        type: 3}
      propertyPath: isRareMonster
      value: 1
      objectReference: {fileID: 0}
    - target: {fileID: 6910339935580272047, guid: 7a84c41981094154285909f975a74d83,
        type: 3}
      propertyPath: rubyDropChance
      value: 100
      objectReference: {fileID: 0}
    - target: {fileID: 6910339935580272047, guid: 7a84c41981094154285909f975a74d83,
        type: 3}
      propertyPath: goldAfterDeath
      value: 50
      objectReference: {fileID: 0}
    - target: {fileID: 6910339935580272047, guid: 7a84c41981094154285909f975a74d83,
        type: 3}
      propertyPath: health
      value: 1000
      objectReference: {fileID: 0}
    - target: {fileID: 3987327791089406018, guid: 7a84c41981094154285909f975a74d83,
        type: 3}
      propertyPath: m_LocalPosition.x
      value: 0
      objectReference: {fileID: 0}
    - target: {fileID: 3987327791089406018, guid: 7a84c41981094154285909f975a74d83,
        type: 3}
      propertyPath: m_LocalPosition.y
      value: 0
      objectReference: {fileID: 0}
    - target: {fileID: 3987327791089406018, guid: 7a84c41981094154285909f975a74d83,
        type: 3}
      propertyPath: m_LocalPosition.z
      value: 0
      objectReference: {fileID: 0}
    - target: {fileID: 3987327791089406018, guid: 7a84c41981094154285909f975a74d83,
        type: 3}
      propertyPath: m_LocalRotation.x
      value: 0
      objectReference: {fileID: 0}
    - target: {fileID: 3987327791089406018, guid: 7a84c41981094154285909f975a74d83,
        type: 3}
      propertyPath: m_LocalRotation.y
      value: 0
      objectReference: {fileID: 0}
    - target: {fileID: 3987327791089406018, guid: 7a84c41981094154285909f975a74d83,
        type: 3}
      propertyPath: m_LocalRotation.z
      value: 0
      objectReference: {fileID: 0}
    - target: {fileID: 3987327791089406018, guid: 7a84c41981094154285909f975a74d83,
        type: 3}
      propertyPath: m_LocalRotation.w
      value: 1
      objectReference: {fileID: 0}
    - target: {fileID: 3987327791089406018, guid: 7a84c41981094154285909f975a74d83,
        type: 3}
      propertyPath: m_RootOrder
      value: 0
      objectReference: {fileID: 0}
    - target: {fileID: 3987327791089406018, guid: 7a84c41981094154285909f975a74d83,
        type: 3}
      propertyPath: m_LocalEulerAnglesHint.x
      value: 0
      objectReference: {fileID: 0}
    - target: {fileID: 3987327791089406018, guid: 7a84c41981094154285909f975a74d83,
        type: 3}
      propertyPath: m_LocalEulerAnglesHint.y
      value: 0
      objectReference: {fileID: 0}
    - target: {fileID: 3987327791089406018, guid: 7a84c41981094154285909f975a74d83,
        type: 3}
      propertyPath: m_LocalEulerAnglesHint.z
      value: 0
      objectReference: {fileID: 0}
    - target: {fileID: 3987327792532855698, guid: 7a84c41981094154285909f975a74d83,
        type: 3}
      propertyPath: m_SpriteTilingProperty.oldSize.x
      value: 0.96
      objectReference: {fileID: 0}
    - target: {fileID: 3987327792532855698, guid: 7a84c41981094154285909f975a74d83,
        type: 3}
      propertyPath: m_SpriteTilingProperty.oldSize.y
      value: 0.55
      objectReference: {fileID: 0}
    - target: {fileID: 3987327792532855698, guid: 7a84c41981094154285909f975a74d83,
        type: 3}
      propertyPath: m_SpriteTilingProperty.newSize.x
      value: 0.96
      objectReference: {fileID: 0}
    - target: {fileID: 3987327792532855698, guid: 7a84c41981094154285909f975a74d83,
        type: 3}
      propertyPath: m_SpriteTilingProperty.newSize.y
      value: 0.94
      objectReference: {fileID: 0}
    - target: {fileID: 3987327792532855693, guid: 7a84c41981094154285909f975a74d83,
        type: 3}
      propertyPath: m_Sprite
      value: 
      objectReference: {fileID: 21300000, guid: 904d8181a92c24644b2edf80744f9210,
        type: 3}
    - target: {fileID: 3987327792532855693, guid: 7a84c41981094154285909f975a74d83,
        type: 3}
      propertyPath: m_Size.x
      value: 0.96
      objectReference: {fileID: 0}
    - target: {fileID: 3987327792532855693, guid: 7a84c41981094154285909f975a74d83,
        type: 3}
      propertyPath: m_Size.y
      value: 0.94
      objectReference: {fileID: 0}
    - target: {fileID: 3987327792532855693, guid: 7a84c41981094154285909f975a74d83,
        type: 3}
      propertyPath: m_WasSpriteAssigned
      value: 1
      objectReference: {fileID: 0}
    m_RemovedComponents: []
  m_SourcePrefab: {fileID: 100100000, guid: 7a84c41981094154285909f975a74d83, type: 3}
