%YAML 1.1
%TAG !u! tag:unity3d.com,2011:
--- !u!74 &7400000
AnimationClip:
  m_ObjectHideFlags: 0
  m_CorrespondingSourceObject: {fileID: 0}
  m_PrefabInstance: {fileID: 0}
  m_PrefabAsset: {fileID: 0}
  m_Name: TextEffect
  serializedVersion: 6
  m_Legacy: 0
  m_Compressed: 0
  m_UseHighQualityCurve: 1
  m_RotationCurves: []
  m_CompressedRotationCurves: []
  m_EulerCurves: []
  m_PositionCurves: []
  m_ScaleCurves: []
  m_FloatCurves:
  - curve:
      serializedVersion: 2
      m_Curve:
      - serializedVersion: 3
        time: 0
        value: 1
        inSlope: 0
        outSlope: 0
        tangentMode: 136
        weightedMode: 0
        inWeight: 0.33333334
        outWeight: 0.33333334
      - serializedVersion: 3
        time: 0.5
        value: 1
        inSlope: 0
        outSlope: 0
        tangentMode: 136
        weightedMode: 0
        inWeight: 0.33333334
        outWeight: 0.33333334
      - serializedVersion: 3
        time: 0.51666665
        value: 0
        inSlope: 0
        outSlope: 0
        tangentMode: 136
        weightedMode: 0
        inWeight: 0.33333334
        outWeight: 0.33333334
      m_PreInfinity: 2
      m_PostInfinity: 2
      m_RotationOrder: 4
    attribute: m_Color.a
    path: 
    classID: 212
    script: {fileID: 0}
  m_PPtrCurves:
  - curve:
    - time: 0
      value: {fileID: 21300000, guid: 7d600525edff5514daf67cb0b31d48b4, type: 3}
    - time: 0.008333334
      value: {fileID: 21300002, guid: 7d600525edff5514daf67cb0b31d48b4, type: 3}
    - time: 0.016666668
      value: {fileID: 21300004, guid: 7d600525edff5514daf67cb0b31d48b4, type: 3}
    - time: 0.025
      value: {fileID: 21300006, guid: 7d600525edff5514daf67cb0b31d48b4, type: 3}
    - time: 0.033333335
      value: {fileID: 21300008, guid: 7d600525edff5514daf67cb0b31d48b4, type: 3}
    - time: 0.041666668
      value: {fileID: 21300010, guid: 7d600525edff5514daf67cb0b31d48b4, type: 3}
    - time: 0.05
      value: {fileID: 21300012, guid: 7d600525edff5514daf67cb0b31d48b4, type: 3}
    - time: 0.058333334
      value: {fileID: 21300014, guid: 7d600525edff5514daf67cb0b31d48b4, type: 3}
    - time: 0.06666667
      value: {fileID: 21300016, guid: 7d600525edff5514daf67cb0b31d48b4, type: 3}
    - time: 0.075
      value: {fileID: 21300018, guid: 7d600525edff5514daf67cb0b31d48b4, type: 3}
    - time: 0.083333336
      value: {fileID: 21300020, guid: 7d600525edff5514daf67cb0b31d48b4, type: 3}
    - time: 0.09166667
      value: {fileID: 21300022, guid: 7d600525edff5514daf67cb0b31d48b4, type: 3}
    - time: 0.1
      value: {fileID: 21300024, guid: 7d600525edff5514daf67cb0b31d48b4, type: 3}
    - time: 0.108333334
      value: {fileID: 21300026, guid: 7d600525edff5514daf67cb0b31d48b4, type: 3}
    - time: 0.11666667
      value: {fileID: 21300028, guid: 7d600525edff5514daf67cb0b31d48b4, type: 3}
    - time: 0.125
      value: {fileID: 21300030, guid: 7d600525edff5514daf67cb0b31d48b4, type: 3}
    - time: 0.13333334
      value: {fileID: 21300032, guid: 7d600525edff5514daf67cb0b31d48b4, type: 3}
    - time: 0.14166667
      value: {fileID: 21300034, guid: 7d600525edff5514daf67cb0b31d48b4, type: 3}
    - time: 0.15
      value: {fileID: 21300036, guid: 7d600525edff5514daf67cb0b31d48b4, type: 3}
    - time: 0.15833333
      value: {fileID: 21300038, guid: 7d600525edff5514daf67cb0b31d48b4, type: 3}
    - time: 0.16666667
      value: {fileID: 21300040, guid: 7d600525edff5514daf67cb0b31d48b4, type: 3}
    - time: 0.175
      value: {fileID: 21300042, guid: 7d600525edff5514daf67cb0b31d48b4, type: 3}
    - time: 0.18333334
      value: {fileID: 21300044, guid: 7d600525edff5514daf67cb0b31d48b4, type: 3}
    - time: 0.19166666
      value: {fileID: 21300046, guid: 7d600525edff5514daf67cb0b31d48b4, type: 3}
    - time: 0.2
      value: {fileID: 21300048, guid: 7d600525edff5514daf67cb0b31d48b4, type: 3}
    - time: 0.20833333
      value: {fileID: 21300050, guid: 7d600525edff5514daf67cb0b31d48b4, type: 3}
    - time: 0.21666667
      value: {fileID: 21300052, guid: 7d600525edff5514daf67cb0b31d48b4, type: 3}
    - time: 0.225
      value: {fileID: 21300054, guid: 7d600525edff5514daf67cb0b31d48b4, type: 3}
    - time: 0.23333333
      value: {fileID: 21300056, guid: 7d600525edff5514daf67cb0b31d48b4, type: 3}
    - time: 0.24166666
      value: {fileID: 21300058, guid: 7d600525edff5514daf67cb0b31d48b4, type: 3}
    - time: 0.25
      value: {fileID: 21300060, guid: 7d600525edff5514daf67cb0b31d48b4, type: 3}
    - time: 0.25833333
      value: {fileID: 21300062, guid: 7d600525edff5514daf67cb0b31d48b4, type: 3}
    - time: 0.26666668
      value: {fileID: 21300064, guid: 7d600525edff5514daf67cb0b31d48b4, type: 3}
    - time: 0.275
      value: {fileID: 21300066, guid: 7d600525edff5514daf67cb0b31d48b4, type: 3}
    - time: 0.28333333
      value: {fileID: 21300068, guid: 7d600525edff5514daf67cb0b31d48b4, type: 3}
    - time: 0.29166666
      value: {fileID: 21300070, guid: 7d600525edff5514daf67cb0b31d48b4, type: 3}
    - time: 0.3
      value: {fileID: 21300072, guid: 7d600525edff5514daf67cb0b31d48b4, type: 3}
    - time: 0.30833334
      value: {fileID: 21300074, guid: 7d600525edff5514daf67cb0b31d48b4, type: 3}
    - time: 0.31666666
      value: {fileID: 21300076, guid: 7d600525edff5514daf67cb0b31d48b4, type: 3}
    - time: 0.325
      value: {fileID: 21300078, guid: 7d600525edff5514daf67cb0b31d48b4, type: 3}
    - time: 0.33333334
      value: {fileID: 21300080, guid: 7d600525edff5514daf67cb0b31d48b4, type: 3}
    - time: 0.34166667
      value: {fileID: 21300082, guid: 7d600525edff5514daf67cb0b31d48b4, type: 3}
    - time: 0.35
      value: {fileID: 21300084, guid: 7d600525edff5514daf67cb0b31d48b4, type: 3}
    - time: 0.35833332
      value: {fileID: 21300086, guid: 7d600525edff5514daf67cb0b31d48b4, type: 3}
    - time: 0.36666667
      value: {fileID: 21300088, guid: 7d600525edff5514daf67cb0b31d48b4, type: 3}
    - time: 0.375
      value: {fileID: 21300090, guid: 7d600525edff5514daf67cb0b31d48b4, type: 3}
    - time: 0.38333333
      value: {fileID: 21300092, guid: 7d600525edff5514daf67cb0b31d48b4, type: 3}
    - time: 0.39166668
      value: {fileID: 21300094, guid: 7d600525edff5514daf67cb0b31d48b4, type: 3}
    - time: 0.4
      value: {fileID: 21300096, guid: 7d600525edff5514daf67cb0b31d48b4, type: 3}
    - time: 0.40833333
      value: {fileID: 21300098, guid: 7d600525edff5514daf67cb0b31d48b4, type: 3}
    - time: 0.41666666
      value: {fileID: 21300100, guid: 7d600525edff5514daf67cb0b31d48b4, type: 3}
    - time: 0.425
      value: {fileID: 21300102, guid: 7d600525edff5514daf67cb0b31d48b4, type: 3}
    - time: 0.43333334
      value: {fileID: 21300104, guid: 7d600525edff5514daf67cb0b31d48b4, type: 3}
    - time: 0.44166666
      value: {fileID: 21300106, guid: 7d600525edff5514daf67cb0b31d48b4, type: 3}
    - time: 0.45
      value: {fileID: 21300108, guid: 7d600525edff5514daf67cb0b31d48b4, type: 3}
    - time: 0.45833334
      value: {fileID: 21300110, guid: 7d600525edff5514daf67cb0b31d48b4, type: 3}
    - time: 0.46666667
      value: {fileID: 21300112, guid: 7d600525edff5514daf67cb0b31d48b4, type: 3}
    - time: 0.475
      value: {fileID: 21300114, guid: 7d600525edff5514daf67cb0b31d48b4, type: 3}
    - time: 0.48333332
      value: {fileID: 21300116, guid: 7d600525edff5514daf67cb0b31d48b4, type: 3}
    - time: 0.49166667
      value: {fileID: 21300118, guid: 7d600525edff5514daf67cb0b31d48b4, type: 3}
    - time: 0.5
      value: {fileID: 21300120, guid: 7d600525edff5514daf67cb0b31d48b4, type: 3}
    - time: 0.5083333
      value: {fileID: 21300122, guid: 7d600525edff5514daf67cb0b31d48b4, type: 3}
    attribute: m_Sprite
    path: 
    classID: 212
    script: {fileID: 0}
  m_SampleRate: 120
  m_WrapMode: 0
  m_Bounds:
    m_Center: {x: 0, y: 0, z: 0}
    m_Extent: {x: 0, y: 0, z: 0}
  m_ClipBindingConstant:
    genericBindings:
    - serializedVersion: 2
      path: 0
      attribute: 304273561
      script: {fileID: 0}
      typeID: 212
      customType: 0
      isPPtrCurve: 0
    - serializedVersion: 2
      path: 0
      attribute: 0
      script: {fileID: 0}
      typeID: 212
      customType: 23
      isPPtrCurve: 1
    pptrCurveMapping:
    - {fileID: 21300000, guid: 7d600525edff5514daf67cb0b31d48b4, type: 3}
    - {fileID: 21300002, guid: 7d600525edff5514daf67cb0b31d48b4, type: 3}
    - {fileID: 21300004, guid: 7d600525edff5514daf67cb0b31d48b4, type: 3}
    - {fileID: 21300006, guid: 7d600525edff5514daf67cb0b31d48b4, type: 3}
    - {fileID: 21300008, guid: 7d600525edff5514daf67cb0b31d48b4, type: 3}
    - {fileID: 21300010, guid: 7d600525edff5514daf67cb0b31d48b4, type: 3}
    - {fileID: 21300012, guid: 7d600525edff5514daf67cb0b31d48b4, type: 3}
    - {fileID: 21300014, guid: 7d600525edff5514daf67cb0b31d48b4, type: 3}
    - {fileID: 21300016, guid: 7d600525edff5514daf67cb0b31d48b4, type: 3}
    - {fileID: 21300018, guid: 7d600525edff5514daf67cb0b31d48b4, type: 3}
    - {fileID: 21300020, guid: 7d600525edff5514daf67cb0b31d48b4, type: 3}
    - {fileID: 21300022, guid: 7d600525edff5514daf67cb0b31d48b4, type: 3}
    - {fileID: 21300024, guid: 7d600525edff5514daf67cb0b31d48b4, type: 3}
    - {fileID: 21300026, guid: 7d600525edff5514daf67cb0b31d48b4, type: 3}
    - {fileID: 21300028, guid: 7d600525edff5514daf67cb0b31d48b4, type: 3}
    - {fileID: 21300030, guid: 7d600525edff5514daf67cb0b31d48b4, type: 3}
    - {fileID: 21300032, guid: 7d600525edff5514daf67cb0b31d48b4, type: 3}
    - {fileID: 21300034, guid: 7d600525edff5514daf67cb0b31d48b4, type: 3}
    - {fileID: 21300036, guid: 7d600525edff5514daf67cb0b31d48b4, type: 3}
    - {fileID: 21300038, guid: 7d600525edff5514daf67cb0b31d48b4, type: 3}
    - {fileID: 21300040, guid: 7d600525edff5514daf67cb0b31d48b4, type: 3}
    - {fileID: 21300042, guid: 7d600525edff5514daf67cb0b31d48b4, type: 3}
    - {fileID: 21300044, guid: 7d600525edff5514daf67cb0b31d48b4, type: 3}
    - {fileID: 21300046, guid: 7d600525edff5514daf67cb0b31d48b4, type: 3}
    - {fileID: 21300048, guid: 7d600525edff5514daf67cb0b31d48b4, type: 3}
    - {fileID: 21300050, guid: 7d600525edff5514daf67cb0b31d48b4, type: 3}
    - {fileID: 21300052, guid: 7d600525edff5514daf67cb0b31d48b4, type: 3}
    - {fileID: 21300054, guid: 7d600525edff5514daf67cb0b31d48b4, type: 3}
    - {fileID: 21300056, guid: 7d600525edff5514daf67cb0b31d48b4, type: 3}
    - {fileID: 21300058, guid: 7d600525edff5514daf67cb0b31d48b4, type: 3}
    - {fileID: 21300060, guid: 7d600525edff5514daf67cb0b31d48b4, type: 3}
    - {fileID: 21300062, guid: 7d600525edff5514daf67cb0b31d48b4, type: 3}
    - {fileID: 21300064, guid: 7d600525edff5514daf67cb0b31d48b4, type: 3}
    - {fileID: 21300066, guid: 7d600525edff5514daf67cb0b31d48b4, type: 3}
    - {fileID: 21300068, guid: 7d600525edff5514daf67cb0b31d48b4, type: 3}
    - {fileID: 21300070, guid: 7d600525edff5514daf67cb0b31d48b4, type: 3}
    - {fileID: 21300072, guid: 7d600525edff5514daf67cb0b31d48b4, type: 3}
    - {fileID: 21300074, guid: 7d600525edff5514daf67cb0b31d48b4, type: 3}
    - {fileID: 21300076, guid: 7d600525edff5514daf67cb0b31d48b4, type: 3}
    - {fileID: 21300078, guid: 7d600525edff5514daf67cb0b31d48b4, type: 3}
    - {fileID: 21300080, guid: 7d600525edff5514daf67cb0b31d48b4, type: 3}
    - {fileID: 21300082, guid: 7d600525edff5514daf67cb0b31d48b4, type: 3}
    - {fileID: 21300084, guid: 7d600525edff5514daf67cb0b31d48b4, type: 3}
    - {fileID: 21300086, guid: 7d600525edff5514daf67cb0b31d48b4, type: 3}
    - {fileID: 21300088, guid: 7d600525edff5514daf67cb0b31d48b4, type: 3}
    - {fileID: 21300090, guid: 7d600525edff5514daf67cb0b31d48b4, type: 3}
    - {fileID: 21300092, guid: 7d600525edff5514daf67cb0b31d48b4, type: 3}
    - {fileID: 21300094, guid: 7d600525edff5514daf67cb0b31d48b4, type: 3}
    - {fileID: 21300096, guid: 7d600525edff5514daf67cb0b31d48b4, type: 3}
    - {fileID: 21300098, guid: 7d600525edff5514daf67cb0b31d48b4, type: 3}
    - {fileID: 21300100, guid: 7d600525edff5514daf67cb0b31d48b4, type: 3}
    - {fileID: 21300102, guid: 7d600525edff5514daf67cb0b31d48b4, type: 3}
    - {fileID: 21300104, guid: 7d600525edff5514daf67cb0b31d48b4, type: 3}
    - {fileID: 21300106, guid: 7d600525edff5514daf67cb0b31d48b4, type: 3}
    - {fileID: 21300108, guid: 7d600525edff5514daf67cb0b31d48b4, type: 3}
    - {fileID: 21300110, guid: 7d600525edff5514daf67cb0b31d48b4, type: 3}
    - {fileID: 21300112, guid: 7d600525edff5514daf67cb0b31d48b4, type: 3}
    - {fileID: 21300114, guid: 7d600525edff5514daf67cb0b31d48b4, type: 3}
    - {fileID: 21300116, guid: 7d600525edff5514daf67cb0b31d48b4, type: 3}
    - {fileID: 21300118, guid: 7d600525edff5514daf67cb0b31d48b4, type: 3}
    - {fileID: 21300120, guid: 7d600525edff5514daf67cb0b31d48b4, type: 3}
    - {fileID: 21300122, guid: 7d600525edff5514daf67cb0b31d48b4, type: 3}
  m_AnimationClipSettings:
    serializedVersion: 2
    m_AdditiveReferencePoseClip: {fileID: 0}
    m_AdditiveReferencePoseTime: 0
    m_StartTime: 0
    m_StopTime: 0.51666665
    m_OrientationOffsetY: 0
    m_Level: 0
    m_CycleOffset: 0
    m_HasAdditiveReferencePose: 0
    m_LoopTime: 1
    m_LoopBlend: 0
    m_LoopBlendOrientation: 0
    m_LoopBlendPositionY: 0
    m_LoopBlendPositionXZ: 0
    m_KeepOriginalOrientation: 0
    m_KeepOriginalPositionY: 1
    m_KeepOriginalPositionXZ: 0
    m_HeightFromFeet: 0
    m_Mirror: 0
  m_EditorCurves:
  - curve:
      serializedVersion: 2
      m_Curve:
      - serializedVersion: 3
        time: 0
        value: 1
        inSlope: 0
        outSlope: 0
        tangentMode: 136
        weightedMode: 0
        inWeight: 0.33333334
        outWeight: 0.33333334
      - serializedVersion: 3
        time: 0.5
        value: 1
        inSlope: 0
        outSlope: 0
        tangentMode: 136
        weightedMode: 0
        inWeight: 0.33333334
        outWeight: 0.33333334
      - serializedVersion: 3
        time: 0.51666665
        value: 0
        inSlope: 0
        outSlope: 0
        tangentMode: 136
        weightedMode: 0
        inWeight: 0.33333334
        outWeight: 0.33333334
      m_PreInfinity: 2
      m_PostInfinity: 2
      m_RotationOrder: 4
    attribute: m_Color.a
    path: 
    classID: 212
    script: {fileID: 0}
  m_EulerEditorCurves: []
  m_HasGenericRootTransform: 0
  m_HasMotionFloatCurves: 0
  m_Events: []
