%YAML 1.1
%TAG !u! tag:unity3d.com,2011:
--- !u!74 &7400000
AnimationClip:
  m_ObjectHideFlags: 0
  m_CorrespondingSourceObject: {fileID: 0}
  m_PrefabInternal: {fileID: 0}
  m_Name: Cactus Stand
  serializedVersion: 6
  m_Legacy: 0
  m_Compressed: 0
  m_UseHighQualityCurve: 1
  m_RotationCurves: []
  m_CompressedRotationCurves: []
  m_EulerCurves: []
  m_PositionCurves: []
  m_ScaleCurves: []
  m_FloatCurves: []
  m_PPtrCurves:
  - curve:
    - time: 0
      value: {fileID: 21300000, guid: 1579bfa92aa0691408e38983cdd6d0bb, type: 3}
    - time: 0.028571429
      value: {fileID: 21300002, guid: 1579bfa92aa0691408e38983cdd6d0bb, type: 3}
    - time: 0.057142857
      value: {fileID: 21300004, guid: 1579bfa92aa0691408e38983cdd6d0bb, type: 3}
    - time: 0.08571429
      value: {fileID: 21300006, guid: 1579bfa92aa0691408e38983cdd6d0bb, type: 3}
    - time: 0.114285715
      value: {fileID: 21300008, guid: 1579bfa92aa0691408e38983cdd6d0bb, type: 3}
    - time: 0.14285715
      value: {fileID: 21300010, guid: 1579bfa92aa0691408e38983cdd6d0bb, type: 3}
    - time: 0.17142858
      value: {fileID: 21300012, guid: 1579bfa92aa0691408e38983cdd6d0bb, type: 3}
    - time: 0.2
      value: {fileID: 21300014, guid: 1579bfa92aa0691408e38983cdd6d0bb, type: 3}
    - time: 0.22857143
      value: {fileID: 21300016, guid: 1579bfa92aa0691408e38983cdd6d0bb, type: 3}
    - time: 0.25714287
      value: {fileID: 21300018, guid: 1579bfa92aa0691408e38983cdd6d0bb, type: 3}
    - time: 0.2857143
      value: {fileID: 21300020, guid: 1579bfa92aa0691408e38983cdd6d0bb, type: 3}
    - time: 0.31428573
      value: {fileID: 21300022, guid: 1579bfa92aa0691408e38983cdd6d0bb, type: 3}
    - time: 0.34285715
      value: {fileID: 21300024, guid: 1579bfa92aa0691408e38983cdd6d0bb, type: 3}
    - time: 0.37142858
      value: {fileID: 21300026, guid: 1579bfa92aa0691408e38983cdd6d0bb, type: 3}
    - time: 0.4
      value: {fileID: 21300028, guid: 1579bfa92aa0691408e38983cdd6d0bb, type: 3}
    - time: 0.42857143
      value: {fileID: 21300030, guid: 1579bfa92aa0691408e38983cdd6d0bb, type: 3}
    - time: 0.45714286
      value: {fileID: 21300032, guid: 1579bfa92aa0691408e38983cdd6d0bb, type: 3}
    - time: 0.4857143
      value: {fileID: 21300034, guid: 1579bfa92aa0691408e38983cdd6d0bb, type: 3}
    - time: 0.51428574
      value: {fileID: 21300036, guid: 1579bfa92aa0691408e38983cdd6d0bb, type: 3}
    - time: 0.54285717
      value: {fileID: 21300038, guid: 1579bfa92aa0691408e38983cdd6d0bb, type: 3}
    - time: 0.5714286
      value: {fileID: 21300040, guid: 1579bfa92aa0691408e38983cdd6d0bb, type: 3}
    - time: 0.6
      value: {fileID: 21300042, guid: 1579bfa92aa0691408e38983cdd6d0bb, type: 3}
    - time: 0.62857145
      value: {fileID: 21300044, guid: 1579bfa92aa0691408e38983cdd6d0bb, type: 3}
    - time: 0.6571429
      value: {fileID: 21300046, guid: 1579bfa92aa0691408e38983cdd6d0bb, type: 3}
    - time: 0.6857143
      value: {fileID: 21300048, guid: 1579bfa92aa0691408e38983cdd6d0bb, type: 3}
    - time: 0.71428573
      value: {fileID: 21300050, guid: 1579bfa92aa0691408e38983cdd6d0bb, type: 3}
    - time: 0.74285716
      value: {fileID: 21300052, guid: 1579bfa92aa0691408e38983cdd6d0bb, type: 3}
    - time: 0.7714286
      value: {fileID: 21300054, guid: 1579bfa92aa0691408e38983cdd6d0bb, type: 3}
    - time: 0.8
      value: {fileID: 21300056, guid: 1579bfa92aa0691408e38983cdd6d0bb, type: 3}
    - time: 0.82857144
      value: {fileID: 21300058, guid: 1579bfa92aa0691408e38983cdd6d0bb, type: 3}
    - time: 0.85714287
      value: {fileID: 21300060, guid: 1579bfa92aa0691408e38983cdd6d0bb, type: 3}
    - time: 0.8857143
      value: {fileID: 21300062, guid: 1579bfa92aa0691408e38983cdd6d0bb, type: 3}
    - time: 0.9142857
      value: {fileID: 21300064, guid: 1579bfa92aa0691408e38983cdd6d0bb, type: 3}
    - time: 0.94285715
      value: {fileID: 21300066, guid: 1579bfa92aa0691408e38983cdd6d0bb, type: 3}
    - time: 0.9714286
      value: {fileID: 21300068, guid: 1579bfa92aa0691408e38983cdd6d0bb, type: 3}
    - time: 1
      value: {fileID: 21300070, guid: 1579bfa92aa0691408e38983cdd6d0bb, type: 3}
    - time: 1.0285715
      value: {fileID: 21300072, guid: 1579bfa92aa0691408e38983cdd6d0bb, type: 3}
    - time: 1.0571429
      value: {fileID: 21300074, guid: 1579bfa92aa0691408e38983cdd6d0bb, type: 3}
    - time: 1.0857143
      value: {fileID: 21300076, guid: 1579bfa92aa0691408e38983cdd6d0bb, type: 3}
    - time: 1.1142857
      value: {fileID: 21300078, guid: 1579bfa92aa0691408e38983cdd6d0bb, type: 3}
    - time: 1.1428572
      value: {fileID: 21300080, guid: 1579bfa92aa0691408e38983cdd6d0bb, type: 3}
    - time: 1.1714286
      value: {fileID: 21300082, guid: 1579bfa92aa0691408e38983cdd6d0bb, type: 3}
    - time: 1.2
      value: {fileID: 21300084, guid: 1579bfa92aa0691408e38983cdd6d0bb, type: 3}
    - time: 1.2285714
      value: {fileID: 21300086, guid: 1579bfa92aa0691408e38983cdd6d0bb, type: 3}
    attribute: m_Sprite
    path: Cactus Body
    classID: 212
    script: {fileID: 0}
  m_SampleRate: 35
  m_WrapMode: 0
  m_Bounds:
    m_Center: {x: 0, y: 0, z: 0}
    m_Extent: {x: 0, y: 0, z: 0}
  m_ClipBindingConstant:
    genericBindings:
    - serializedVersion: 2
      path: 4278540080
      attribute: 0
      script: {fileID: 0}
      typeID: 212
      customType: 23
      isPPtrCurve: 1
    pptrCurveMapping:
    - {fileID: 21300000, guid: 1579bfa92aa0691408e38983cdd6d0bb, type: 3}
    - {fileID: 21300002, guid: 1579bfa92aa0691408e38983cdd6d0bb, type: 3}
    - {fileID: 21300004, guid: 1579bfa92aa0691408e38983cdd6d0bb, type: 3}
    - {fileID: 21300006, guid: 1579bfa92aa0691408e38983cdd6d0bb, type: 3}
    - {fileID: 21300008, guid: 1579bfa92aa0691408e38983cdd6d0bb, type: 3}
    - {fileID: 21300010, guid: 1579bfa92aa0691408e38983cdd6d0bb, type: 3}
    - {fileID: 21300012, guid: 1579bfa92aa0691408e38983cdd6d0bb, type: 3}
    - {fileID: 21300014, guid: 1579bfa92aa0691408e38983cdd6d0bb, type: 3}
    - {fileID: 21300016, guid: 1579bfa92aa0691408e38983cdd6d0bb, type: 3}
    - {fileID: 21300018, guid: 1579bfa92aa0691408e38983cdd6d0bb, type: 3}
    - {fileID: 21300020, guid: 1579bfa92aa0691408e38983cdd6d0bb, type: 3}
    - {fileID: 21300022, guid: 1579bfa92aa0691408e38983cdd6d0bb, type: 3}
    - {fileID: 21300024, guid: 1579bfa92aa0691408e38983cdd6d0bb, type: 3}
    - {fileID: 21300026, guid: 1579bfa92aa0691408e38983cdd6d0bb, type: 3}
    - {fileID: 21300028, guid: 1579bfa92aa0691408e38983cdd6d0bb, type: 3}
    - {fileID: 21300030, guid: 1579bfa92aa0691408e38983cdd6d0bb, type: 3}
    - {fileID: 21300032, guid: 1579bfa92aa0691408e38983cdd6d0bb, type: 3}
    - {fileID: 21300034, guid: 1579bfa92aa0691408e38983cdd6d0bb, type: 3}
    - {fileID: 21300036, guid: 1579bfa92aa0691408e38983cdd6d0bb, type: 3}
    - {fileID: 21300038, guid: 1579bfa92aa0691408e38983cdd6d0bb, type: 3}
    - {fileID: 21300040, guid: 1579bfa92aa0691408e38983cdd6d0bb, type: 3}
    - {fileID: 21300042, guid: 1579bfa92aa0691408e38983cdd6d0bb, type: 3}
    - {fileID: 21300044, guid: 1579bfa92aa0691408e38983cdd6d0bb, type: 3}
    - {fileID: 21300046, guid: 1579bfa92aa0691408e38983cdd6d0bb, type: 3}
    - {fileID: 21300048, guid: 1579bfa92aa0691408e38983cdd6d0bb, type: 3}
    - {fileID: 21300050, guid: 1579bfa92aa0691408e38983cdd6d0bb, type: 3}
    - {fileID: 21300052, guid: 1579bfa92aa0691408e38983cdd6d0bb, type: 3}
    - {fileID: 21300054, guid: 1579bfa92aa0691408e38983cdd6d0bb, type: 3}
    - {fileID: 21300056, guid: 1579bfa92aa0691408e38983cdd6d0bb, type: 3}
    - {fileID: 21300058, guid: 1579bfa92aa0691408e38983cdd6d0bb, type: 3}
    - {fileID: 21300060, guid: 1579bfa92aa0691408e38983cdd6d0bb, type: 3}
    - {fileID: 21300062, guid: 1579bfa92aa0691408e38983cdd6d0bb, type: 3}
    - {fileID: 21300064, guid: 1579bfa92aa0691408e38983cdd6d0bb, type: 3}
    - {fileID: 21300066, guid: 1579bfa92aa0691408e38983cdd6d0bb, type: 3}
    - {fileID: 21300068, guid: 1579bfa92aa0691408e38983cdd6d0bb, type: 3}
    - {fileID: 21300070, guid: 1579bfa92aa0691408e38983cdd6d0bb, type: 3}
    - {fileID: 21300072, guid: 1579bfa92aa0691408e38983cdd6d0bb, type: 3}
    - {fileID: 21300074, guid: 1579bfa92aa0691408e38983cdd6d0bb, type: 3}
    - {fileID: 21300076, guid: 1579bfa92aa0691408e38983cdd6d0bb, type: 3}
    - {fileID: 21300078, guid: 1579bfa92aa0691408e38983cdd6d0bb, type: 3}
    - {fileID: 21300080, guid: 1579bfa92aa0691408e38983cdd6d0bb, type: 3}
    - {fileID: 21300082, guid: 1579bfa92aa0691408e38983cdd6d0bb, type: 3}
    - {fileID: 21300084, guid: 1579bfa92aa0691408e38983cdd6d0bb, type: 3}
    - {fileID: 21300086, guid: 1579bfa92aa0691408e38983cdd6d0bb, type: 3}
  m_AnimationClipSettings:
    serializedVersion: 2
    m_AdditiveReferencePoseClip: {fileID: 0}
    m_AdditiveReferencePoseTime: 0
    m_StartTime: 0
    m_StopTime: 1.2571429
    m_OrientationOffsetY: 0
    m_Level: 0
    m_CycleOffset: 0
    m_HasAdditiveReferencePose: 0
    m_LoopTime: 1
    m_LoopBlend: 0
    m_LoopBlendOrientation: 0
    m_LoopBlendPositionY: 0
    m_LoopBlendPositionXZ: 0
    m_KeepOriginalOrientation: 0
    m_KeepOriginalPositionY: 1
    m_KeepOriginalPositionXZ: 0
    m_HeightFromFeet: 0
    m_Mirror: 0
  m_EditorCurves: []
  m_EulerEditorCurves: []
  m_HasGenericRootTransform: 0
  m_HasMotionFloatCurves: 0
  m_GenerateMotionCurves: 0
  m_Events: []
