%YAML 1.1
%TAG !u! tag:unity3d.com,2011:
--- !u!29 &1
OcclusionCullingSettings:
  m_ObjectHideFlags: 0
  serializedVersion: 2
  m_OcclusionBakeSettings:
    smallestOccluder: 5
    smallestHole: 0.25
    backfaceThreshold: 100
  m_SceneGUID: 00000000000000000000000000000000
  m_OcclusionCullingData: {fileID: 0}
--- !u!104 &2
RenderSettings:
  m_ObjectHideFlags: 0
  serializedVersion: 9
  m_Fog: 0
  m_FogColor: {r: 0.5, g: 0.5, b: 0.5, a: 1}
  m_FogMode: 3
  m_FogDensity: 0.01
  m_LinearFogStart: 0
  m_LinearFogEnd: 300
  m_AmbientSkyColor: {r: 0.212, g: 0.227, b: 0.259, a: 1}
  m_AmbientEquatorColor: {r: 0.114, g: 0.125, b: 0.133, a: 1}
  m_AmbientGroundColor: {r: 0.047, g: 0.043, b: 0.035, a: 1}
  m_AmbientIntensity: 1
  m_AmbientMode: 0
  m_SubtractiveShadowColor: {r: 0.42, g: 0.478, b: 0.627, a: 1}
  m_SkyboxMaterial: {fileID: 10304, guid: 0000000000000000f000000000000000, type: 0}
  m_HaloStrength: 0.5
  m_FlareStrength: 1
  m_FlareFadeSpeed: 3
  m_HaloTexture: {fileID: 0}
  m_SpotCookie: {fileID: 10001, guid: 0000000000000000e000000000000000, type: 0}
  m_DefaultReflectionMode: 0
  m_DefaultReflectionResolution: 128
  m_ReflectionBounces: 1
  m_ReflectionIntensity: 1
  m_CustomReflection: {fileID: 0}
  m_Sun: {fileID: 0}
  m_IndirectSpecularColor: {r: 0, g: 0, b: 0, a: 1}
  m_UseRadianceAmbientProbe: 0
--- !u!157 &3
LightmapSettings:
  m_ObjectHideFlags: 0
  serializedVersion: 11
  m_GIWorkflowMode: 0
  m_GISettings:
    serializedVersion: 2
    m_BounceScale: 1
    m_IndirectOutputScale: 1
    m_AlbedoBoost: 1
    m_TemporalCoherenceThreshold: 1
    m_EnvironmentLightingMode: 0
    m_EnableBakedLightmaps: 1
    m_EnableRealtimeLightmaps: 1
  m_LightmapEditorSettings:
    serializedVersion: 10
    m_Resolution: 2
    m_BakeResolution: 40
    m_AtlasSize: 1024
    m_AO: 0
    m_AOMaxDistance: 1
    m_CompAOExponent: 1
    m_CompAOExponentDirect: 0
    m_Padding: 2
    m_LightmapParameters: {fileID: 0}
    m_LightmapsBakeMode: 1
    m_TextureCompression: 1
    m_FinalGather: 0
    m_FinalGatherFiltering: 1
    m_FinalGatherRayCount: 256
    m_ReflectionCompression: 2
    m_MixedBakeMode: 1
    m_BakeBackend: 0
    m_PVRSampling: 1
    m_PVRDirectSampleCount: 32
    m_PVRSampleCount: 500
    m_PVRBounces: 2
    m_PVRFilterTypeDirect: 0
    m_PVRFilterTypeIndirect: 0
    m_PVRFilterTypeAO: 0
    m_PVRFilteringMode: 0
    m_PVRCulling: 1
    m_PVRFilteringGaussRadiusDirect: 1
    m_PVRFilteringGaussRadiusIndirect: 5
    m_PVRFilteringGaussRadiusAO: 2
    m_PVRFilteringAtrousPositionSigmaDirect: 0.5
    m_PVRFilteringAtrousPositionSigmaIndirect: 2
    m_PVRFilteringAtrousPositionSigmaAO: 1
    m_ShowResolutionOverlay: 1
  m_LightingDataAsset: {fileID: 0}
  m_UseShadowmask: 0
--- !u!196 &4
NavMeshSettings:
  serializedVersion: 2
  m_ObjectHideFlags: 0
  m_BuildSettings:
    serializedVersion: 2
    agentTypeID: 0
    agentRadius: 0.5
    agentHeight: 2
    agentSlope: 45
    agentClimb: 0.4
    ledgeDropHeight: 0
    maxJumpAcrossDistance: 0
    minRegionArea: 2
    manualCellSize: 0
    cellSize: 0.16666667
    manualTileSize: 0
    tileSize: 256
    accuratePlacement: 0
    debug:
      m_Flags: 0
  m_NavMeshData: {fileID: 0}
--- !u!1001 &68679045
Prefab:
  m_ObjectHideFlags: 0
  serializedVersion: 2
  m_Modification:
    m_TransformParent: {fileID: 0}
    m_Modifications:
    - target: {fileID: 4000012534615224, guid: 59ef10e296326024dafffb41ced11b76, type: 2}
      propertyPath: m_LocalPosition.x
      value: 1.5
      objectReference: {fileID: 0}
    - target: {fileID: 4000012534615224, guid: 59ef10e296326024dafffb41ced11b76, type: 2}
      propertyPath: m_LocalPosition.y
      value: 0
      objectReference: {fileID: 0}
    - target: {fileID: 4000012534615224, guid: 59ef10e296326024dafffb41ced11b76, type: 2}
      propertyPath: m_LocalPosition.z
      value: 2.27
      objectReference: {fileID: 0}
    - target: {fileID: 4000012534615224, guid: 59ef10e296326024dafffb41ced11b76, type: 2}
      propertyPath: m_LocalRotation.x
      value: 0
      objectReference: {fileID: 0}
    - target: {fileID: 4000012534615224, guid: 59ef10e296326024dafffb41ced11b76, type: 2}
      propertyPath: m_LocalRotation.y
      value: 0
      objectReference: {fileID: 0}
    - target: {fileID: 4000012534615224, guid: 59ef10e296326024dafffb41ced11b76, type: 2}
      propertyPath: m_LocalRotation.z
      value: 0
      objectReference: {fileID: 0}
    - target: {fileID: 4000012534615224, guid: 59ef10e296326024dafffb41ced11b76, type: 2}
      propertyPath: m_LocalRotation.w
      value: 1
      objectReference: {fileID: 0}
    - target: {fileID: 4000012534615224, guid: 59ef10e296326024dafffb41ced11b76, type: 2}
      propertyPath: m_RootOrder
      value: 3
      objectReference: {fileID: 0}
    m_RemovedComponents: []
  m_SourcePrefab: {fileID: 100100000, guid: 59ef10e296326024dafffb41ced11b76, type: 2}
  m_RootGameObject: {fileID: 1050509965}
  m_IsPrefabAsset: 0
--- !u!1 &376558866
GameObject:
  m_ObjectHideFlags: 0
  m_CorrespondingSourceObject: {fileID: 1000012099897084, guid: 13650af5705351c4b923af505d2e0256,
    type: 2}
  m_PrefabInternal: {fileID: 665945288}
  serializedVersion: 6
  m_Component:
  - component: {fileID: 376558869}
  - component: {fileID: 376558868}
  - component: {fileID: 376558867}
  m_Layer: 0
  m_Name: Weapon_Left
  m_TagString: Untagged
  m_Icon: {fileID: 0}
  m_NavMeshLayer: 0
  m_StaticEditorFlags: 0
  m_IsActive: 1
--- !u!23 &376558867
MeshRenderer:
  m_ObjectHideFlags: 0
  m_CorrespondingSourceObject: {fileID: 23000013752800484, guid: 13650af5705351c4b923af505d2e0256,
    type: 2}
  m_PrefabInternal: {fileID: 665945288}
  m_GameObject: {fileID: 376558866}
  m_Enabled: 1
  m_CastShadows: 1
  m_ReceiveShadows: 1
  m_DynamicOccludee: 1
  m_MotionVectors: 1
  m_LightProbeUsage: 1
  m_ReflectionProbeUsage: 1
  m_RenderingLayerMask: 4294967295
  m_Materials:
  - {fileID: 2100000, guid: b1bac660421f11c49a4f371aa1c78073, type: 2}
  m_StaticBatchInfo:
    firstSubMesh: 0
    subMeshCount: 0
  m_StaticBatchRoot: {fileID: 0}
  m_ProbeAnchor: {fileID: 0}
  m_LightProbeVolumeOverride: {fileID: 0}
  m_ScaleInLightmap: 1
  m_PreserveUVs: 0
  m_IgnoreNormalsForChartDetection: 0
  m_ImportantGI: 0
  m_StitchLightmapSeams: 0
  m_SelectedEditorRenderState: 3
  m_MinimumChartSize: 4
  m_AutoUVMaxDistance: 0.5
  m_AutoUVMaxAngle: 89
  m_LightmapParameters: {fileID: 0}
  m_SortingLayerID: 0
  m_SortingLayer: 0
  m_SortingOrder: 0
--- !u!33 &376558868
MeshFilter:
  m_ObjectHideFlags: 0
  m_CorrespondingSourceObject: {fileID: 33000011479816448, guid: 13650af5705351c4b923af505d2e0256,
    type: 2}
  m_PrefabInternal: {fileID: 665945288}
  m_GameObject: {fileID: 376558866}
  m_Mesh: {fileID: 4300020, guid: 6f6b397918ef75c499a826247372b18c, type: 3}
--- !u!4 &376558869
Transform:
  m_ObjectHideFlags: 0
  m_CorrespondingSourceObject: {fileID: 4000013174827142, guid: 13650af5705351c4b923af505d2e0256,
    type: 2}
  m_PrefabInternal: {fileID: 665945288}
  m_GameObject: {fileID: 376558866}
  m_LocalRotation: {x: 0, y: 0, z: 0, w: 1}
  m_LocalPosition: {x: -1.5, y: 0, z: 2.27}
  m_LocalScale: {x: 1, y: 1, z: 1}
  m_Children: []
  m_Father: {fileID: 0}
  m_RootOrder: 4
  m_LocalEulerAnglesHint: {x: 0, y: 0, z: 0}
--- !u!1 &482067185
GameObject:
  m_ObjectHideFlags: 0
  m_CorrespondingSourceObject: {fileID: 0}
  m_PrefabInternal: {fileID: 0}
  serializedVersion: 6
  m_Component:
  - component: {fileID: 482067190}
  - component: {fileID: 482067189}
  - component: {fileID: 482067188}
  - component: {fileID: 482067187}
  - component: {fileID: 482067186}
  m_Layer: 0
  m_Name: Main Camera
  m_TagString: MainCamera
  m_Icon: {fileID: 0}
  m_NavMeshLayer: 0
  m_StaticEditorFlags: 0
  m_IsActive: 1
--- !u!81 &482067186
AudioListener:
  m_ObjectHideFlags: 0
  m_CorrespondingSourceObject: {fileID: 0}
  m_PrefabInternal: {fileID: 0}
  m_GameObject: {fileID: 482067185}
  m_Enabled: 1
--- !u!124 &482067187
Behaviour:
  m_ObjectHideFlags: 0
  m_CorrespondingSourceObject: {fileID: 0}
  m_PrefabInternal: {fileID: 0}
  m_GameObject: {fileID: 482067185}
  m_Enabled: 1
--- !u!92 &482067188
Behaviour:
  m_ObjectHideFlags: 0
  m_CorrespondingSourceObject: {fileID: 0}
  m_PrefabInternal: {fileID: 0}
  m_GameObject: {fileID: 482067185}
  m_Enabled: 1
--- !u!20 &482067189
Camera:
  m_ObjectHideFlags: 0
  m_CorrespondingSourceObject: {fileID: 0}
  m_PrefabInternal: {fileID: 0}
  m_GameObject: {fileID: 482067185}
  m_Enabled: 1
  serializedVersion: 2
  m_ClearFlags: 1
  m_BackGroundColor: {r: 0.19215687, g: 0.3019608, b: 0.4745098, a: 0}
  m_projectionMatrixMode: 1
  m_SensorSize: {x: 36, y: 24}
  m_LensShift: {x: 0, y: 0}
  m_FocalLength: 50
  m_NormalizedViewPortRect:
    serializedVersion: 2
    x: 0
    y: 0
    width: 1
    height: 1
  near clip plane: 0.3
  far clip plane: 1000
  field of view: 60
  orthographic: 0
  orthographic size: 5
  m_Depth: -1
  m_CullingMask:
    serializedVersion: 2
    m_Bits: 4294967295
  m_RenderingPath: -1
  m_TargetTexture: {fileID: 0}
  m_TargetDisplay: 0
  m_TargetEye: 3
  m_HDR: 0
  m_AllowMSAA: 1
  m_AllowDynamicResolution: 0
  m_ForceIntoRT: 0
  m_OcclusionCulling: 1
  m_StereoConvergence: 10
  m_StereoSeparation: 0.022
--- !u!4 &482067190
Transform:
  m_ObjectHideFlags: 0
  m_CorrespondingSourceObject: {fileID: 0}
  m_PrefabInternal: {fileID: 0}
  m_GameObject: {fileID: 482067185}
  m_LocalRotation: {x: 0, y: 0, z: 0, w: 1}
  m_LocalPosition: {x: 0, y: 1, z: -10}
  m_LocalScale: {x: 1, y: 1, z: 1}
  m_Children: []
  m_Father: {fileID: 0}
  m_RootOrder: 0
  m_LocalEulerAnglesHint: {x: 0, y: 0, z: 0}
--- !u!1001 &487055813
Prefab:
  m_ObjectHideFlags: 0
  serializedVersion: 2
  m_Modification:
    m_TransformParent: {fileID: 0}
    m_Modifications:
    - target: {fileID: 4000011892244244, guid: e3f8d8e89ce96e041bff2cb1bf886c32, type: 2}
      propertyPath: m_LocalPosition.x
      value: -1.5
      objectReference: {fileID: 0}
    - target: {fileID: 4000011892244244, guid: e3f8d8e89ce96e041bff2cb1bf886c32, type: 2}
      propertyPath: m_LocalPosition.y
      value: 0
      objectReference: {fileID: 0}
    - target: {fileID: 4000011892244244, guid: e3f8d8e89ce96e041bff2cb1bf886c32, type: 2}
      propertyPath: m_LocalPosition.z
      value: -2.36
      objectReference: {fileID: 0}
    - target: {fileID: 4000011892244244, guid: e3f8d8e89ce96e041bff2cb1bf886c32, type: 2}
      propertyPath: m_LocalRotation.x
      value: 0
      objectReference: {fileID: 0}
    - target: {fileID: 4000011892244244, guid: e3f8d8e89ce96e041bff2cb1bf886c32, type: 2}
      propertyPath: m_LocalRotation.y
      value: 0
      objectReference: {fileID: 0}
    - target: {fileID: 4000011892244244, guid: e3f8d8e89ce96e041bff2cb1bf886c32, type: 2}
      propertyPath: m_LocalRotation.z
      value: 0
      objectReference: {fileID: 0}
    - target: {fileID: 4000011892244244, guid: e3f8d8e89ce96e041bff2cb1bf886c32, type: 2}
      propertyPath: m_LocalRotation.w
      value: 1
      objectReference: {fileID: 0}
    - target: {fileID: 4000011892244244, guid: e3f8d8e89ce96e041bff2cb1bf886c32, type: 2}
      propertyPath: m_RootOrder
      value: 9
      objectReference: {fileID: 0}
    m_RemovedComponents: []
  m_SourcePrefab: {fileID: 100100000, guid: e3f8d8e89ce96e041bff2cb1bf886c32, type: 2}
  m_RootGameObject: {fileID: 1003973995}
  m_IsPrefabAsset: 0
--- !u!1 &492623226
GameObject:
  m_ObjectHideFlags: 0
  m_CorrespondingSourceObject: {fileID: 1000012673558772, guid: 46a5b301b3cc3ca41b95b63fb2f8d59d,
    type: 2}
  m_PrefabInternal: {fileID: 1413715674}
  serializedVersion: 6
  m_Component:
  - component: {fileID: 492623229}
  - component: {fileID: 492623228}
  - component: {fileID: 492623227}
  m_Layer: 0
  m_Name: 'Secondary_wing_Right '
  m_TagString: Untagged
  m_Icon: {fileID: 0}
  m_NavMeshLayer: 0
  m_StaticEditorFlags: 0
  m_IsActive: 1
--- !u!23 &492623227
MeshRenderer:
  m_ObjectHideFlags: 0
  m_CorrespondingSourceObject: {fileID: 23000013563538954, guid: 46a5b301b3cc3ca41b95b63fb2f8d59d,
    type: 2}
  m_PrefabInternal: {fileID: 1413715674}
  m_GameObject: {fileID: 492623226}
  m_Enabled: 1
  m_CastShadows: 1
  m_ReceiveShadows: 1
  m_DynamicOccludee: 1
  m_MotionVectors: 1
  m_LightProbeUsage: 1
  m_ReflectionProbeUsage: 1
  m_RenderingLayerMask: 4294967295
  m_Materials:
  - {fileID: 2100000, guid: b1bac660421f11c49a4f371aa1c78073, type: 2}
  m_StaticBatchInfo:
    firstSubMesh: 0
    subMeshCount: 0
  m_StaticBatchRoot: {fileID: 0}
  m_ProbeAnchor: {fileID: 0}
  m_LightProbeVolumeOverride: {fileID: 0}
  m_ScaleInLightmap: 1
  m_PreserveUVs: 0
  m_IgnoreNormalsForChartDetection: 0
  m_ImportantGI: 0
  m_StitchLightmapSeams: 0
  m_SelectedEditorRenderState: 3
  m_MinimumChartSize: 4
  m_AutoUVMaxDistance: 0.5
  m_AutoUVMaxAngle: 89
  m_LightmapParameters: {fileID: 0}
  m_SortingLayerID: 0
  m_SortingLayer: 0
  m_SortingOrder: 0
--- !u!33 &492623228
MeshFilter:
  m_ObjectHideFlags: 0
  m_CorrespondingSourceObject: {fileID: 33000013540244658, guid: 46a5b301b3cc3ca41b95b63fb2f8d59d,
    type: 2}
  m_PrefabInternal: {fileID: 1413715674}
  m_GameObject: {fileID: 492623226}
  m_Mesh: {fileID: 4300036, guid: 6f6b397918ef75c499a826247372b18c, type: 3}
--- !u!4 &492623229
Transform:
  m_ObjectHideFlags: 0
  m_CorrespondingSourceObject: {fileID: 4000013009042036, guid: 46a5b301b3cc3ca41b95b63fb2f8d59d,
    type: 2}
  m_PrefabInternal: {fileID: 1413715674}
  m_GameObject: {fileID: 492623226}
  m_LocalRotation: {x: 0, y: 0, z: 0, w: 1}
  m_LocalPosition: {x: 1.5, y: 0, z: -2.36}
  m_LocalScale: {x: 1, y: 1, z: 1}
  m_Children: []
  m_Father: {fileID: 0}
  m_RootOrder: 8
  m_LocalEulerAnglesHint: {x: 0, y: 0, z: 0}
--- !u!1001 &497895361
Prefab:
  m_ObjectHideFlags: 0
  serializedVersion: 2
  m_Modification:
    m_TransformParent: {fileID: 0}
    m_Modifications:
    - target: {fileID: 4000010987358744, guid: 843b17ec9ed54754da9597b5bfa008ad, type: 2}
      propertyPath: m_LocalPosition.x
      value: 0
      objectReference: {fileID: 0}
    - target: {fileID: 4000010987358744, guid: 843b17ec9ed54754da9597b5bfa008ad, type: 2}
      propertyPath: m_LocalPosition.y
      value: 0
      objectReference: {fileID: 0}
    - target: {fileID: 4000010987358744, guid: 843b17ec9ed54754da9597b5bfa008ad, type: 2}
      propertyPath: m_LocalPosition.z
      value: 2.61
      objectReference: {fileID: 0}
    - target: {fileID: 4000010987358744, guid: 843b17ec9ed54754da9597b5bfa008ad, type: 2}
      propertyPath: m_LocalRotation.x
      value: 0
      objectReference: {fileID: 0}
    - target: {fileID: 4000010987358744, guid: 843b17ec9ed54754da9597b5bfa008ad, type: 2}
      propertyPath: m_LocalRotation.y
      value: 0
      objectReference: {fileID: 0}
    - target: {fileID: 4000010987358744, guid: 843b17ec9ed54754da9597b5bfa008ad, type: 2}
      propertyPath: m_LocalRotation.z
      value: 0
      objectReference: {fileID: 0}
    - target: {fileID: 4000010987358744, guid: 843b17ec9ed54754da9597b5bfa008ad, type: 2}
      propertyPath: m_LocalRotation.w
      value: 1
      objectReference: {fileID: 0}
    - target: {fileID: 4000010987358744, guid: 843b17ec9ed54754da9597b5bfa008ad, type: 2}
      propertyPath: m_RootOrder
      value: 10
      objectReference: {fileID: 0}
    m_RemovedComponents: []
  m_SourcePrefab: {fileID: 100100000, guid: 843b17ec9ed54754da9597b5bfa008ad, type: 2}
  m_RootGameObject: {fileID: 1957443155}
  m_IsPrefabAsset: 0
--- !u!1001 &665945288
Prefab:
  m_ObjectHideFlags: 0
  serializedVersion: 2
  m_Modification:
    m_TransformParent: {fileID: 0}
    m_Modifications:
    - target: {fileID: 4000013174827142, guid: 13650af5705351c4b923af505d2e0256, type: 2}
      propertyPath: m_LocalPosition.x
      value: -1.5
      objectReference: {fileID: 0}
    - target: {fileID: 4000013174827142, guid: 13650af5705351c4b923af505d2e0256, type: 2}
      propertyPath: m_LocalPosition.y
      value: 0
      objectReference: {fileID: 0}
    - target: {fileID: 4000013174827142, guid: 13650af5705351c4b923af505d2e0256, type: 2}
      propertyPath: m_LocalPosition.z
      value: 2.27
      objectReference: {fileID: 0}
    - target: {fileID: 4000013174827142, guid: 13650af5705351c4b923af505d2e0256, type: 2}
      propertyPath: m_LocalRotation.x
      value: 0
      objectReference: {fileID: 0}
    - target: {fileID: 4000013174827142, guid: 13650af5705351c4b923af505d2e0256, type: 2}
      propertyPath: m_LocalRotation.y
      value: 0
      objectReference: {fileID: 0}
    - target: {fileID: 4000013174827142, guid: 13650af5705351c4b923af505d2e0256, type: 2}
      propertyPath: m_LocalRotation.z
      value: 0
      objectReference: {fileID: 0}
    - target: {fileID: 4000013174827142, guid: 13650af5705351c4b923af505d2e0256, type: 2}
      propertyPath: m_LocalRotation.w
      value: 1
      objectReference: {fileID: 0}
    - target: {fileID: 4000013174827142, guid: 13650af5705351c4b923af505d2e0256, type: 2}
      propertyPath: m_RootOrder
      value: 4
      objectReference: {fileID: 0}
    m_RemovedComponents: []
  m_SourcePrefab: {fileID: 100100000, guid: 13650af5705351c4b923af505d2e0256, type: 2}
  m_RootGameObject: {fileID: 376558866}
  m_IsPrefabAsset: 0
--- !u!1001 &754467523
Prefab:
  m_ObjectHideFlags: 0
  serializedVersion: 2
  m_Modification:
    m_TransformParent: {fileID: 0}
    m_Modifications:
    - target: {fileID: 4000010670674528, guid: ede51f4d4d29c6a4aaa855d7e7f6a3e4, type: 2}
      propertyPath: m_LocalPosition.x
      value: 0
      objectReference: {fileID: 0}
    - target: {fileID: 4000010670674528, guid: ede51f4d4d29c6a4aaa855d7e7f6a3e4, type: 2}
      propertyPath: m_LocalPosition.y
      value: 0
      objectReference: {fileID: 0}
    - target: {fileID: 4000010670674528, guid: ede51f4d4d29c6a4aaa855d7e7f6a3e4, type: 2}
      propertyPath: m_LocalPosition.z
      value: -3.79
      objectReference: {fileID: 0}
    - target: {fileID: 4000010670674528, guid: ede51f4d4d29c6a4aaa855d7e7f6a3e4, type: 2}
      propertyPath: m_LocalRotation.x
      value: 0
      objectReference: {fileID: 0}
    - target: {fileID: 4000010670674528, guid: ede51f4d4d29c6a4aaa855d7e7f6a3e4, type: 2}
      propertyPath: m_LocalRotation.y
      value: 0
      objectReference: {fileID: 0}
    - target: {fileID: 4000010670674528, guid: ede51f4d4d29c6a4aaa855d7e7f6a3e4, type: 2}
      propertyPath: m_LocalRotation.z
      value: 0
      objectReference: {fileID: 0}
    - target: {fileID: 4000010670674528, guid: ede51f4d4d29c6a4aaa855d7e7f6a3e4, type: 2}
      propertyPath: m_LocalRotation.w
      value: 1
      objectReference: {fileID: 0}
    - target: {fileID: 4000010670674528, guid: ede51f4d4d29c6a4aaa855d7e7f6a3e4, type: 2}
      propertyPath: m_RootOrder
      value: 11
      objectReference: {fileID: 0}
    m_RemovedComponents: []
  m_SourcePrefab: {fileID: 100100000, guid: ede51f4d4d29c6a4aaa855d7e7f6a3e4, type: 2}
  m_RootGameObject: {fileID: 1435901109}
  m_IsPrefabAsset: 0
--- !u!1 &802338374
GameObject:
  m_ObjectHideFlags: 0
  m_CorrespondingSourceObject: {fileID: 0}
  m_PrefabInternal: {fileID: 0}
  serializedVersion: 6
  m_Component:
  - component: {fileID: 802338376}
  - component: {fileID: 802338375}
  m_Layer: 0
  m_Name: Directional Light
  m_TagString: Untagged
  m_Icon: {fileID: 0}
  m_NavMeshLayer: 0
  m_StaticEditorFlags: 0
  m_IsActive: 1
--- !u!108 &802338375
Light:
  m_ObjectHideFlags: 0
  m_CorrespondingSourceObject: {fileID: 0}
  m_PrefabInternal: {fileID: 0}
  m_GameObject: {fileID: 802338374}
  m_Enabled: 1
  serializedVersion: 8
  m_Type: 1
  m_Color: {r: 1, g: 0.95686275, b: 0.8392157, a: 1}
  m_Intensity: 1
  m_Range: 10
  m_SpotAngle: 30
  m_CookieSize: 10
  m_Shadows:
    m_Type: 2
    m_Resolution: -1
    m_CustomResolution: -1
    m_Strength: 1
    m_Bias: 0.05
    m_NormalBias: 0.4
    m_NearPlane: 0.2
  m_Cookie: {fileID: 0}
  m_DrawHalo: 0
  m_Flare: {fileID: 0}
  m_RenderMode: 0
  m_CullingMask:
    serializedVersion: 2
    m_Bits: 4294967295
  m_Lightmapping: 4
  m_LightShadowCasterMode: 0
  m_AreaSize: {x: 1, y: 1}
  m_BounceIntensity: 1
  m_ColorTemperature: 6570
  m_UseColorTemperature: 0
  m_ShadowRadius: 0
  m_ShadowAngle: 0
--- !u!4 &802338376
Transform:
  m_ObjectHideFlags: 0
  m_CorrespondingSourceObject: {fileID: 0}
  m_PrefabInternal: {fileID: 0}
  m_GameObject: {fileID: 802338374}
  m_LocalRotation: {x: 0.40821788, y: -0.23456968, z: 0.10938163, w: 0.8754261}
  m_LocalPosition: {x: 0, y: 3, z: 0}
  m_LocalScale: {x: 1, y: 1, z: 1}
  m_Children: []
  m_Father: {fileID: 0}
  m_RootOrder: 13
  m_LocalEulerAnglesHint: {x: 50, y: -30, z: 0}
--- !u!1001 &977479883
Prefab:
  m_ObjectHideFlags: 0
  serializedVersion: 2
  m_Modification:
    m_TransformParent: {fileID: 0}
    m_Modifications:
    - target: {fileID: 4000011835905154, guid: 7f3b0af4173f85d42a0b50107ac8eeae, type: 2}
      propertyPath: m_LocalPosition.x
      value: -1.5
      objectReference: {fileID: 0}
    - target: {fileID: 4000011835905154, guid: 7f3b0af4173f85d42a0b50107ac8eeae, type: 2}
      propertyPath: m_LocalPosition.y
      value: 0
      objectReference: {fileID: 0}
    - target: {fileID: 4000011835905154, guid: 7f3b0af4173f85d42a0b50107ac8eeae, type: 2}
      propertyPath: m_LocalPosition.z
      value: -3.65
      objectReference: {fileID: 0}
    - target: {fileID: 4000011835905154, guid: 7f3b0af4173f85d42a0b50107ac8eeae, type: 2}
      propertyPath: m_LocalRotation.x
      value: 0
      objectReference: {fileID: 0}
    - target: {fileID: 4000011835905154, guid: 7f3b0af4173f85d42a0b50107ac8eeae, type: 2}
      propertyPath: m_LocalRotation.y
      value: 0
      objectReference: {fileID: 0}
    - target: {fileID: 4000011835905154, guid: 7f3b0af4173f85d42a0b50107ac8eeae, type: 2}
      propertyPath: m_LocalRotation.z
      value: 0
      objectReference: {fileID: 0}
    - target: {fileID: 4000011835905154, guid: 7f3b0af4173f85d42a0b50107ac8eeae, type: 2}
      propertyPath: m_LocalRotation.w
      value: 1
      objectReference: {fileID: 0}
    - target: {fileID: 4000011835905154, guid: 7f3b0af4173f85d42a0b50107ac8eeae, type: 2}
      propertyPath: m_RootOrder
      value: 7
      objectReference: {fileID: 0}
    m_RemovedComponents: []
  m_SourcePrefab: {fileID: 100100000, guid: 7f3b0af4173f85d42a0b50107ac8eeae, type: 2}
  m_RootGameObject: {fileID: 2026504656}
  m_IsPrefabAsset: 0
--- !u!1 &1003973995
GameObject:
  m_ObjectHideFlags: 0
  m_CorrespondingSourceObject: {fileID: 1000012880030534, guid: e3f8d8e89ce96e041bff2cb1bf886c32,
    type: 2}
  m_PrefabInternal: {fileID: 487055813}
  serializedVersion: 6
  m_Component:
  - component: {fileID: 1003973998}
  - component: {fileID: 1003973997}
  - component: {fileID: 1003973996}
  m_Layer: 0
  m_Name: Secondary_wing_Left
  m_TagString: Untagged
  m_Icon: {fileID: 0}
  m_NavMeshLayer: 0
  m_StaticEditorFlags: 0
  m_IsActive: 1
--- !u!23 &1003973996
MeshRenderer:
  m_ObjectHideFlags: 0
  m_CorrespondingSourceObject: {fileID: 23000013294202484, guid: e3f8d8e89ce96e041bff2cb1bf886c32,
    type: 2}
  m_PrefabInternal: {fileID: 487055813}
  m_GameObject: {fileID: 1003973995}
  m_Enabled: 1
  m_CastShadows: 1
  m_ReceiveShadows: 1
  m_DynamicOccludee: 1
  m_MotionVectors: 1
  m_LightProbeUsage: 1
  m_ReflectionProbeUsage: 1
  m_RenderingLayerMask: 4294967295
  m_Materials:
  - {fileID: 2100000, guid: b1bac660421f11c49a4f371aa1c78073, type: 2}
  m_StaticBatchInfo:
    firstSubMesh: 0
    subMeshCount: 0
  m_StaticBatchRoot: {fileID: 0}
  m_ProbeAnchor: {fileID: 0}
  m_LightProbeVolumeOverride: {fileID: 0}
  m_ScaleInLightmap: 1
  m_PreserveUVs: 0
  m_IgnoreNormalsForChartDetection: 0
  m_ImportantGI: 0
  m_StitchLightmapSeams: 0
  m_SelectedEditorRenderState: 3
  m_MinimumChartSize: 4
  m_AutoUVMaxDistance: 0.5
  m_AutoUVMaxAngle: 89
  m_LightmapParameters: {fileID: 0}
  m_SortingLayerID: 0
  m_SortingLayer: 0
  m_SortingOrder: 0
--- !u!33 &1003973997
MeshFilter:
  m_ObjectHideFlags: 0
  m_CorrespondingSourceObject: {fileID: 33000011450271346, guid: e3f8d8e89ce96e041bff2cb1bf886c32,
    type: 2}
  m_PrefabInternal: {fileID: 487055813}
  m_GameObject: {fileID: 1003973995}
  m_Mesh: {fileID: 4300018, guid: 6f6b397918ef75c499a826247372b18c, type: 3}
--- !u!4 &1003973998
Transform:
  m_ObjectHideFlags: 0
  m_CorrespondingSourceObject: {fileID: 4000011892244244, guid: e3f8d8e89ce96e041bff2cb1bf886c32,
    type: 2}
  m_PrefabInternal: {fileID: 487055813}
  m_GameObject: {fileID: 1003973995}
  m_LocalRotation: {x: 0, y: 0, z: 0, w: 1}
  m_LocalPosition: {x: -1.5, y: 0, z: -2.36}
  m_LocalScale: {x: 1, y: 1, z: 1}
  m_Children: []
  m_Father: {fileID: 0}
  m_RootOrder: 9
  m_LocalEulerAnglesHint: {x: 0, y: 0, z: 0}
--- !u!1 &1050509965
GameObject:
  m_ObjectHideFlags: 0
  m_CorrespondingSourceObject: {fileID: 1000013867779562, guid: 59ef10e296326024dafffb41ced11b76,
    type: 2}
  m_PrefabInternal: {fileID: 68679045}
  serializedVersion: 6
  m_Component:
  - component: {fileID: 1050509968}
  - component: {fileID: 1050509967}
  - component: {fileID: 1050509966}
  m_Layer: 0
  m_Name: 'Weapon_Right '
  m_TagString: Untagged
  m_Icon: {fileID: 0}
  m_NavMeshLayer: 0
  m_StaticEditorFlags: 0
  m_IsActive: 1
--- !u!23 &1050509966
MeshRenderer:
  m_ObjectHideFlags: 0
  m_CorrespondingSourceObject: {fileID: 23000012591616442, guid: 59ef10e296326024dafffb41ced11b76,
    type: 2}
  m_PrefabInternal: {fileID: 68679045}
  m_GameObject: {fileID: 1050509965}
  m_Enabled: 1
  m_CastShadows: 1
  m_ReceiveShadows: 1
  m_DynamicOccludee: 1
  m_MotionVectors: 1
  m_LightProbeUsage: 1
  m_ReflectionProbeUsage: 1
  m_RenderingLayerMask: 4294967295
  m_Materials:
  - {fileID: 2100000, guid: b1bac660421f11c49a4f371aa1c78073, type: 2}
  m_StaticBatchInfo:
    firstSubMesh: 0
    subMeshCount: 0
  m_StaticBatchRoot: {fileID: 0}
  m_ProbeAnchor: {fileID: 0}
  m_LightProbeVolumeOverride: {fileID: 0}
  m_ScaleInLightmap: 1
  m_PreserveUVs: 0
  m_IgnoreNormalsForChartDetection: 0
  m_ImportantGI: 0
  m_StitchLightmapSeams: 0
  m_SelectedEditorRenderState: 3
  m_MinimumChartSize: 4
  m_AutoUVMaxDistance: 0.5
  m_AutoUVMaxAngle: 89
  m_LightmapParameters: {fileID: 0}
  m_SortingLayerID: 0
  m_SortingLayer: 0
  m_SortingOrder: 0
--- !u!33 &1050509967
MeshFilter:
  m_ObjectHideFlags: 0
  m_CorrespondingSourceObject: {fileID: 33000012371379104, guid: 59ef10e296326024dafffb41ced11b76,
    type: 2}
  m_PrefabInternal: {fileID: 68679045}
  m_GameObject: {fileID: 1050509965}
  m_Mesh: {fileID: 4300034, guid: 6f6b397918ef75c499a826247372b18c, type: 3}
--- !u!4 &1050509968
Transform:
  m_ObjectHideFlags: 0
  m_CorrespondingSourceObject: {fileID: 4000012534615224, guid: 59ef10e296326024dafffb41ced11b76,
    type: 2}
  m_PrefabInternal: {fileID: 68679045}
  m_GameObject: {fileID: 1050509965}
  m_LocalRotation: {x: 0, y: 0, z: 0, w: 1}
  m_LocalPosition: {x: 1.5, y: 0, z: 2.27}
  m_LocalScale: {x: 1, y: 1, z: 1}
  m_Children: []
  m_Father: {fileID: 0}
  m_RootOrder: 3
  m_LocalEulerAnglesHint: {x: 0, y: 0, z: 0}
--- !u!1001 &1302848269
Prefab:
  m_ObjectHideFlags: 0
  serializedVersion: 2
  m_Modification:
    m_TransformParent: {fileID: 0}
    m_Modifications:
    - target: {fileID: 4000012667872982, guid: 3e43fa8ba17e29447a65e5fe6c18d155, type: 2}
      propertyPath: m_LocalPosition.x
      value: 1.5
      objectReference: {fileID: 0}
    - target: {fileID: 4000012667872982, guid: 3e43fa8ba17e29447a65e5fe6c18d155, type: 2}
      propertyPath: m_LocalPosition.y
      value: 0
      objectReference: {fileID: 0}
    - target: {fileID: 4000012667872982, guid: 3e43fa8ba17e29447a65e5fe6c18d155, type: 2}
      propertyPath: m_LocalPosition.z
      value: -3.65
      objectReference: {fileID: 0}
    - target: {fileID: 4000012667872982, guid: 3e43fa8ba17e29447a65e5fe6c18d155, type: 2}
      propertyPath: m_LocalRotation.x
      value: 0
      objectReference: {fileID: 0}
    - target: {fileID: 4000012667872982, guid: 3e43fa8ba17e29447a65e5fe6c18d155, type: 2}
      propertyPath: m_LocalRotation.y
      value: 0
      objectReference: {fileID: 0}
    - target: {fileID: 4000012667872982, guid: 3e43fa8ba17e29447a65e5fe6c18d155, type: 2}
      propertyPath: m_LocalRotation.z
      value: 0
      objectReference: {fileID: 0}
    - target: {fileID: 4000012667872982, guid: 3e43fa8ba17e29447a65e5fe6c18d155, type: 2}
      propertyPath: m_LocalRotation.w
      value: 1
      objectReference: {fileID: 0}
    - target: {fileID: 4000012667872982, guid: 3e43fa8ba17e29447a65e5fe6c18d155, type: 2}
      propertyPath: m_RootOrder
      value: 6
      objectReference: {fileID: 0}
    m_RemovedComponents: []
  m_SourcePrefab: {fileID: 100100000, guid: 3e43fa8ba17e29447a65e5fe6c18d155, type: 2}
  m_RootGameObject: {fileID: 1841413684}
  m_IsPrefabAsset: 0
--- !u!1001 &1413715674
Prefab:
  m_ObjectHideFlags: 0
  serializedVersion: 2
  m_Modification:
    m_TransformParent: {fileID: 0}
    m_Modifications:
    - target: {fileID: 4000013009042036, guid: 46a5b301b3cc3ca41b95b63fb2f8d59d, type: 2}
      propertyPath: m_LocalPosition.x
      value: 1.5
      objectReference: {fileID: 0}
    - target: {fileID: 4000013009042036, guid: 46a5b301b3cc3ca41b95b63fb2f8d59d, type: 2}
      propertyPath: m_LocalPosition.y
      value: 0
      objectReference: {fileID: 0}
    - target: {fileID: 4000013009042036, guid: 46a5b301b3cc3ca41b95b63fb2f8d59d, type: 2}
      propertyPath: m_LocalPosition.z
      value: -2.36
      objectReference: {fileID: 0}
    - target: {fileID: 4000013009042036, guid: 46a5b301b3cc3ca41b95b63fb2f8d59d, type: 2}
      propertyPath: m_LocalRotation.x
      value: 0
      objectReference: {fileID: 0}
    - target: {fileID: 4000013009042036, guid: 46a5b301b3cc3ca41b95b63fb2f8d59d, type: 2}
      propertyPath: m_LocalRotation.y
      value: 0
      objectReference: {fileID: 0}
    - target: {fileID: 4000013009042036, guid: 46a5b301b3cc3ca41b95b63fb2f8d59d, type: 2}
      propertyPath: m_LocalRotation.z
      value: 0
      objectReference: {fileID: 0}
    - target: {fileID: 4000013009042036, guid: 46a5b301b3cc3ca41b95b63fb2f8d59d, type: 2}
      propertyPath: m_LocalRotation.w
      value: 1
      objectReference: {fileID: 0}
    - target: {fileID: 4000013009042036, guid: 46a5b301b3cc3ca41b95b63fb2f8d59d, type: 2}
      propertyPath: m_RootOrder
      value: 8
      objectReference: {fileID: 0}
    m_RemovedComponents: []
  m_SourcePrefab: {fileID: 100100000, guid: 46a5b301b3cc3ca41b95b63fb2f8d59d, type: 2}
  m_RootGameObject: {fileID: 492623226}
  m_IsPrefabAsset: 0
--- !u!1 &1435901109
GameObject:
  m_ObjectHideFlags: 0
  m_CorrespondingSourceObject: {fileID: 1000013104876792, guid: ede51f4d4d29c6a4aaa855d7e7f6a3e4,
    type: 2}
  m_PrefabInternal: {fileID: 754467523}
  serializedVersion: 6
  m_Component:
  - component: {fileID: 1435901112}
  - component: {fileID: 1435901111}
  - component: {fileID: 1435901110}
  m_Layer: 0
  m_Name: Thruster_End
  m_TagString: Untagged
  m_Icon: {fileID: 0}
  m_NavMeshLayer: 0
  m_StaticEditorFlags: 0
  m_IsActive: 1
--- !u!23 &1435901110
MeshRenderer:
  m_ObjectHideFlags: 0
  m_CorrespondingSourceObject: {fileID: 23000010534060900, guid: ede51f4d4d29c6a4aaa855d7e7f6a3e4,
    type: 2}
  m_PrefabInternal: {fileID: 754467523}
  m_GameObject: {fileID: 1435901109}
  m_Enabled: 1
  m_CastShadows: 1
  m_ReceiveShadows: 1
  m_DynamicOccludee: 1
  m_MotionVectors: 1
  m_LightProbeUsage: 1
  m_ReflectionProbeUsage: 1
  m_RenderingLayerMask: 4294967295
  m_Materials:
  - {fileID: 2100000, guid: b1bac660421f11c49a4f371aa1c78073, type: 2}
  m_StaticBatchInfo:
    firstSubMesh: 0
    subMeshCount: 0
  m_StaticBatchRoot: {fileID: 0}
  m_ProbeAnchor: {fileID: 0}
  m_LightProbeVolumeOverride: {fileID: 0}
  m_ScaleInLightmap: 1
  m_PreserveUVs: 0
  m_IgnoreNormalsForChartDetection: 0
  m_ImportantGI: 0
  m_StitchLightmapSeams: 0
  m_SelectedEditorRenderState: 3
  m_MinimumChartSize: 4
  m_AutoUVMaxDistance: 0.5
  m_AutoUVMaxAngle: 89
  m_LightmapParameters: {fileID: 0}
  m_SortingLayerID: 0
  m_SortingLayer: 0
  m_SortingOrder: 0
--- !u!33 &1435901111
MeshFilter:
  m_ObjectHideFlags: 0
  m_CorrespondingSourceObject: {fileID: 33000012655213450, guid: ede51f4d4d29c6a4aaa855d7e7f6a3e4,
    type: 2}
  m_PrefabInternal: {fileID: 754467523}
  m_GameObject: {fileID: 1435901109}
  m_Mesh: {fileID: 4300000, guid: 6f6b397918ef75c499a826247372b18c, type: 3}
--- !u!4 &1435901112
Transform:
  m_ObjectHideFlags: 0
  m_CorrespondingSourceObject: {fileID: 4000010670674528, guid: ede51f4d4d29c6a4aaa855d7e7f6a3e4,
    type: 2}
  m_PrefabInternal: {fileID: 754467523}
  m_GameObject: {fileID: 1435901109}
  m_LocalRotation: {x: 0, y: 0, z: 0, w: 1}
  m_LocalPosition: {x: 0, y: 0, z: -3.79}
  m_LocalScale: {x: 1, y: 1, z: 1}
  m_Children: []
  m_Father: {fileID: 0}
  m_RootOrder: 11
  m_LocalEulerAnglesHint: {x: 0, y: 0, z: 0}
--- !u!1 &1524769237
GameObject:
  m_ObjectHideFlags: 0
  m_CorrespondingSourceObject: {fileID: 1000010590945616, guid: 7ba836a4e34305a4ba0a9d20da5d4735,
    type: 2}
  m_PrefabInternal: {fileID: 2022544493}
  serializedVersion: 6
  m_Component:
  - component: {fileID: 1524769240}
  - component: {fileID: 1524769239}
  - component: {fileID: 1524769238}
  m_Layer: 0
  m_Name: 'Wing_Right '
  m_TagString: Untagged
  m_Icon: {fileID: 0}
  m_NavMeshLayer: 0
  m_StaticEditorFlags: 0
  m_IsActive: 1
--- !u!23 &1524769238
MeshRenderer:
  m_ObjectHideFlags: 0
  m_CorrespondingSourceObject: {fileID: 23000012565963260, guid: 7ba836a4e34305a4ba0a9d20da5d4735,
    type: 2}
  m_PrefabInternal: {fileID: 2022544493}
  m_GameObject: {fileID: 1524769237}
  m_Enabled: 1
  m_CastShadows: 1
  m_ReceiveShadows: 1
  m_DynamicOccludee: 1
  m_MotionVectors: 1
  m_LightProbeUsage: 1
  m_ReflectionProbeUsage: 1
  m_RenderingLayerMask: 4294967295
  m_Materials:
  - {fileID: 2100000, guid: b1bac660421f11c49a4f371aa1c78073, type: 2}
  m_StaticBatchInfo:
    firstSubMesh: 0
    subMeshCount: 0
  m_StaticBatchRoot: {fileID: 0}
  m_ProbeAnchor: {fileID: 0}
  m_LightProbeVolumeOverride: {fileID: 0}
  m_ScaleInLightmap: 1
  m_PreserveUVs: 0
  m_IgnoreNormalsForChartDetection: 0
  m_ImportantGI: 0
  m_StitchLightmapSeams: 0
  m_SelectedEditorRenderState: 3
  m_MinimumChartSize: 4
  m_AutoUVMaxDistance: 0.5
  m_AutoUVMaxAngle: 89
  m_LightmapParameters: {fileID: 0}
  m_SortingLayerID: 0
  m_SortingLayer: 0
  m_SortingOrder: 0
--- !u!33 &1524769239
MeshFilter:
  m_ObjectHideFlags: 0
  m_CorrespondingSourceObject: {fileID: 33000011016283504, guid: 7ba836a4e34305a4ba0a9d20da5d4735,
    type: 2}
  m_PrefabInternal: {fileID: 2022544493}
  m_GameObject: {fileID: 1524769237}
  m_Mesh: {fileID: 4300038, guid: 6f6b397918ef75c499a826247372b18c, type: 3}
--- !u!4 &1524769240
Transform:
  m_ObjectHideFlags: 0
  m_CorrespondingSourceObject: {fileID: 4000011395859806, guid: 7ba836a4e34305a4ba0a9d20da5d4735,
    type: 2}
  m_PrefabInternal: {fileID: 2022544493}
  m_GameObject: {fileID: 1524769237}
  m_LocalRotation: {x: 0, y: 0, z: 0, w: 1}
  m_LocalPosition: {x: 1.5, y: 0, z: -0.37}
  m_LocalScale: {x: 1, y: 1, z: 1}
  m_Children: []
  m_Father: {fileID: 0}
  m_RootOrder: 1
  m_LocalEulerAnglesHint: {x: 0, y: 0, z: 0}
--- !u!1 &1590541172
GameObject:
  m_ObjectHideFlags: 0
  m_CorrespondingSourceObject: {fileID: 1000010946725240, guid: dd0d299dd6988e749907b7b8fe39768a,
    type: 2}
  m_PrefabInternal: {fileID: 1985663361}
  serializedVersion: 6
  m_Component:
  - component: {fileID: 1590541175}
  - component: {fileID: 1590541174}
  - component: {fileID: 1590541173}
  m_Layer: 0
  m_Name: Wing_Left
  m_TagString: Untagged
  m_Icon: {fileID: 0}
  m_NavMeshLayer: 0
  m_StaticEditorFlags: 0
  m_IsActive: 1
--- !u!23 &1590541173
MeshRenderer:
  m_ObjectHideFlags: 0
  m_CorrespondingSourceObject: {fileID: 23000012855588240, guid: dd0d299dd6988e749907b7b8fe39768a,
    type: 2}
  m_PrefabInternal: {fileID: 1985663361}
  m_GameObject: {fileID: 1590541172}
  m_Enabled: 1
  m_CastShadows: 1
  m_ReceiveShadows: 1
  m_DynamicOccludee: 1
  m_MotionVectors: 1
  m_LightProbeUsage: 1
  m_ReflectionProbeUsage: 1
  m_RenderingLayerMask: 4294967295
  m_Materials:
  - {fileID: 2100000, guid: b1bac660421f11c49a4f371aa1c78073, type: 2}
  m_StaticBatchInfo:
    firstSubMesh: 0
    subMeshCount: 0
  m_StaticBatchRoot: {fileID: 0}
  m_ProbeAnchor: {fileID: 0}
  m_LightProbeVolumeOverride: {fileID: 0}
  m_ScaleInLightmap: 1
  m_PreserveUVs: 0
  m_IgnoreNormalsForChartDetection: 0
  m_ImportantGI: 0
  m_StitchLightmapSeams: 0
  m_SelectedEditorRenderState: 3
  m_MinimumChartSize: 4
  m_AutoUVMaxDistance: 0.5
  m_AutoUVMaxAngle: 89
  m_LightmapParameters: {fileID: 0}
  m_SortingLayerID: 0
  m_SortingLayer: 0
  m_SortingOrder: 0
--- !u!33 &1590541174
MeshFilter:
  m_ObjectHideFlags: 0
  m_CorrespondingSourceObject: {fileID: 33000010019982738, guid: dd0d299dd6988e749907b7b8fe39768a,
    type: 2}
  m_PrefabInternal: {fileID: 1985663361}
  m_GameObject: {fileID: 1590541172}
  m_Mesh: {fileID: 4300016, guid: 6f6b397918ef75c499a826247372b18c, type: 3}
--- !u!4 &1590541175
Transform:
  m_ObjectHideFlags: 0
  m_CorrespondingSourceObject: {fileID: 4000010228546632, guid: dd0d299dd6988e749907b7b8fe39768a,
    type: 2}
  m_PrefabInternal: {fileID: 1985663361}
  m_GameObject: {fileID: 1590541172}
  m_LocalRotation: {x: 0, y: 0, z: 0, w: 1}
  m_LocalPosition: {x: -1.5, y: 0, z: -0.37}
  m_LocalScale: {x: 1, y: 1, z: 1}
  m_Children: []
  m_Father: {fileID: 0}
  m_RootOrder: 2
  m_LocalEulerAnglesHint: {x: 0, y: 0, z: 0}
--- !u!1 &1841413684
GameObject:
  m_ObjectHideFlags: 0
  m_CorrespondingSourceObject: {fileID: 1000014144718076, guid: 3e43fa8ba17e29447a65e5fe6c18d155,
    type: 2}
  m_PrefabInternal: {fileID: 1302848269}
  serializedVersion: 6
  m_Component:
  - component: {fileID: 1841413687}
  - component: {fileID: 1841413686}
  - component: {fileID: 1841413685}
  m_Layer: 0
  m_Name: 'Tertiary_Wing_Right '
  m_TagString: Untagged
  m_Icon: {fileID: 0}
  m_NavMeshLayer: 0
  m_StaticEditorFlags: 0
  m_IsActive: 1
--- !u!23 &1841413685
MeshRenderer:
  m_ObjectHideFlags: 0
  m_CorrespondingSourceObject: {fileID: 23000010705460620, guid: 3e43fa8ba17e29447a65e5fe6c18d155,
    type: 2}
  m_PrefabInternal: {fileID: 1302848269}
  m_GameObject: {fileID: 1841413684}
  m_Enabled: 1
  m_CastShadows: 1
  m_ReceiveShadows: 1
  m_DynamicOccludee: 1
  m_MotionVectors: 1
  m_LightProbeUsage: 1
  m_ReflectionProbeUsage: 1
  m_RenderingLayerMask: 4294967295
  m_Materials:
  - {fileID: 2100000, guid: b1bac660421f11c49a4f371aa1c78073, type: 2}
  m_StaticBatchInfo:
    firstSubMesh: 0
    subMeshCount: 0
  m_StaticBatchRoot: {fileID: 0}
  m_ProbeAnchor: {fileID: 0}
  m_LightProbeVolumeOverride: {fileID: 0}
  m_ScaleInLightmap: 1
  m_PreserveUVs: 0
  m_IgnoreNormalsForChartDetection: 0
  m_ImportantGI: 0
  m_StitchLightmapSeams: 0
  m_SelectedEditorRenderState: 3
  m_MinimumChartSize: 4
  m_AutoUVMaxDistance: 0.5
  m_AutoUVMaxAngle: 89
  m_LightmapParameters: {fileID: 0}
  m_SortingLayerID: 0
  m_SortingLayer: 0
  m_SortingOrder: 0
--- !u!33 &1841413686
MeshFilter:
  m_ObjectHideFlags: 0
  m_CorrespondingSourceObject: {fileID: 33000012448605072, guid: 3e43fa8ba17e29447a65e5fe6c18d155,
    type: 2}
  m_PrefabInternal: {fileID: 1302848269}
  m_GameObject: {fileID: 1841413684}
  m_Mesh: {fileID: 4300032, guid: 6f6b397918ef75c499a826247372b18c, type: 3}
--- !u!4 &1841413687
Transform:
  m_ObjectHideFlags: 0
  m_CorrespondingSourceObject: {fileID: 4000012667872982, guid: 3e43fa8ba17e29447a65e5fe6c18d155,
    type: 2}
  m_PrefabInternal: {fileID: 1302848269}
  m_GameObject: {fileID: 1841413684}
  m_LocalRotation: {x: 0, y: 0, z: 0, w: 1}
  m_LocalPosition: {x: 1.5, y: 0, z: -3.65}
  m_LocalScale: {x: 1, y: 1, z: 1}
  m_Children: []
  m_Father: {fileID: 0}
  m_RootOrder: 6
  m_LocalEulerAnglesHint: {x: 0, y: 0, z: 0}
--- !u!1 &1845312210
GameObject:
  m_ObjectHideFlags: 0
  m_CorrespondingSourceObject: {fileID: 1000010311823264, guid: 23745f1af6ee9414f9286ac047b66e82,
    type: 2}
  m_PrefabInternal: {fileID: 1863072437}
  serializedVersion: 6
  m_Component:
  - component: {fileID: 1845312213}
  - component: {fileID: 1845312212}
  - component: {fileID: 1845312211}
  m_Layer: 0
  m_Name: Thruster
  m_TagString: Untagged
  m_Icon: {fileID: 0}
  m_NavMeshLayer: 0
  m_StaticEditorFlags: 0
  m_IsActive: 1
--- !u!23 &1845312211
MeshRenderer:
  m_ObjectHideFlags: 0
  m_CorrespondingSourceObject: {fileID: 23000013726030800, guid: 23745f1af6ee9414f9286ac047b66e82,
    type: 2}
  m_PrefabInternal: {fileID: 1863072437}
  m_GameObject: {fileID: 1845312210}
  m_Enabled: 1
  m_CastShadows: 1
  m_ReceiveShadows: 1
  m_DynamicOccludee: 1
  m_MotionVectors: 1
  m_LightProbeUsage: 1
  m_ReflectionProbeUsage: 1
  m_RenderingLayerMask: 4294967295
  m_Materials:
  - {fileID: 2100000, guid: b1bac660421f11c49a4f371aa1c78073, type: 2}
  m_StaticBatchInfo:
    firstSubMesh: 0
    subMeshCount: 0
  m_StaticBatchRoot: {fileID: 0}
  m_ProbeAnchor: {fileID: 0}
  m_LightProbeVolumeOverride: {fileID: 0}
  m_ScaleInLightmap: 1
  m_PreserveUVs: 0
  m_IgnoreNormalsForChartDetection: 0
  m_ImportantGI: 0
  m_StitchLightmapSeams: 0
  m_SelectedEditorRenderState: 3
  m_MinimumChartSize: 4
  m_AutoUVMaxDistance: 0.5
  m_AutoUVMaxAngle: 89
  m_LightmapParameters: {fileID: 0}
  m_SortingLayerID: 0
  m_SortingLayer: 0
  m_SortingOrder: 0
--- !u!33 &1845312212
MeshFilter:
  m_ObjectHideFlags: 0
  m_CorrespondingSourceObject: {fileID: 33000010772335538, guid: 23745f1af6ee9414f9286ac047b66e82,
    type: 2}
  m_PrefabInternal: {fileID: 1863072437}
  m_GameObject: {fileID: 1845312210}
  m_Mesh: {fileID: 4300010, guid: 6f6b397918ef75c499a826247372b18c, type: 3}
--- !u!4 &1845312213
Transform:
  m_ObjectHideFlags: 0
  m_CorrespondingSourceObject: {fileID: 4000010050181218, guid: 23745f1af6ee9414f9286ac047b66e82,
    type: 2}
  m_PrefabInternal: {fileID: 1863072437}
  m_GameObject: {fileID: 1845312210}
  m_LocalRotation: {x: 0, y: 0, z: 0, w: 1}
  m_LocalPosition: {x: 0, y: 0, z: -2.28}
  m_LocalScale: {x: 1, y: 1, z: 1}
  m_Children: []
  m_Father: {fileID: 0}
  m_RootOrder: 5
  m_LocalEulerAnglesHint: {x: 0, y: 0, z: 0}
--- !u!1001 &1863072437
Prefab:
  m_ObjectHideFlags: 0
  serializedVersion: 2
  m_Modification:
    m_TransformParent: {fileID: 0}
    m_Modifications:
    - target: {fileID: 4000010050181218, guid: 23745f1af6ee9414f9286ac047b66e82, type: 2}
      propertyPath: m_LocalPosition.x
      value: 0
      objectReference: {fileID: 0}
    - target: {fileID: 4000010050181218, guid: 23745f1af6ee9414f9286ac047b66e82, type: 2}
      propertyPath: m_LocalPosition.y
      value: 0
      objectReference: {fileID: 0}
    - target: {fileID: 4000010050181218, guid: 23745f1af6ee9414f9286ac047b66e82, type: 2}
      propertyPath: m_LocalPosition.z
      value: -2.28
      objectReference: {fileID: 0}
    - target: {fileID: 4000010050181218, guid: 23745f1af6ee9414f9286ac047b66e82, type: 2}
      propertyPath: m_LocalRotation.x
      value: 0
      objectReference: {fileID: 0}
    - target: {fileID: 4000010050181218, guid: 23745f1af6ee9414f9286ac047b66e82, type: 2}
      propertyPath: m_LocalRotation.y
      value: 0
      objectReference: {fileID: 0}
    - target: {fileID: 4000010050181218, guid: 23745f1af6ee9414f9286ac047b66e82, type: 2}
      propertyPath: m_LocalRotation.z
      value: 0
      objectReference: {fileID: 0}
    - target: {fileID: 4000010050181218, guid: 23745f1af6ee9414f9286ac047b66e82, type: 2}
      propertyPath: m_LocalRotation.w
      value: 1
      objectReference: {fileID: 0}
    - target: {fileID: 4000010050181218, guid: 23745f1af6ee9414f9286ac047b66e82, type: 2}
      propertyPath: m_RootOrder
      value: 5
      objectReference: {fileID: 0}
    m_RemovedComponents: []
  m_SourcePrefab: {fileID: 100100000, guid: 23745f1af6ee9414f9286ac047b66e82, type: 2}
  m_RootGameObject: {fileID: 1845312210}
  m_IsPrefabAsset: 0
--- !u!1001 &1934055766
Prefab:
  m_ObjectHideFlags: 0
  serializedVersion: 2
  m_Modification:
    m_TransformParent: {fileID: 0}
    m_Modifications:
    - target: {fileID: 4000011438151066, guid: 170847126cb058a4692a754a819e0a47, type: 2}
      propertyPath: m_LocalPosition.x
      value: 0
      objectReference: {fileID: 0}
    - target: {fileID: 4000011438151066, guid: 170847126cb058a4692a754a819e0a47, type: 2}
      propertyPath: m_LocalPosition.y
      value: 0
      objectReference: {fileID: 0}
    - target: {fileID: 4000011438151066, guid: 170847126cb058a4692a754a819e0a47, type: 2}
      propertyPath: m_LocalPosition.z
      value: 0
      objectReference: {fileID: 0}
    - target: {fileID: 4000011438151066, guid: 170847126cb058a4692a754a819e0a47, type: 2}
      propertyPath: m_LocalRotation.x
      value: 0
      objectReference: {fileID: 0}
    - target: {fileID: 4000011438151066, guid: 170847126cb058a4692a754a819e0a47, type: 2}
      propertyPath: m_LocalRotation.y
      value: 0
      objectReference: {fileID: 0}
    - target: {fileID: 4000011438151066, guid: 170847126cb058a4692a754a819e0a47, type: 2}
      propertyPath: m_LocalRotation.z
      value: 0
      objectReference: {fileID: 0}
    - target: {fileID: 4000011438151066, guid: 170847126cb058a4692a754a819e0a47, type: 2}
      propertyPath: m_LocalRotation.w
      value: 1
      objectReference: {fileID: 0}
    - target: {fileID: 4000011438151066, guid: 170847126cb058a4692a754a819e0a47, type: 2}
      propertyPath: m_RootOrder
      value: 12
      objectReference: {fileID: 0}
    m_RemovedComponents: []
  m_SourcePrefab: {fileID: 100100000, guid: 170847126cb058a4692a754a819e0a47, type: 2}
  m_RootGameObject: {fileID: 1962564345}
  m_IsPrefabAsset: 0
--- !u!1 &1957443155
GameObject:
  m_ObjectHideFlags: 0
  m_CorrespondingSourceObject: {fileID: 1000012174660792, guid: 843b17ec9ed54754da9597b5bfa008ad,
    type: 2}
  m_PrefabInternal: {fileID: 497895361}
  serializedVersion: 6
  m_Component:
  - component: {fileID: 1957443158}
  - component: {fileID: 1957443157}
  - component: {fileID: 1957443156}
  m_Layer: 0
  m_Name: Engine
  m_TagString: Untagged
  m_Icon: {fileID: 0}
  m_NavMeshLayer: 0
  m_StaticEditorFlags: 0
  m_IsActive: 1
--- !u!23 &1957443156
MeshRenderer:
  m_ObjectHideFlags: 0
  m_CorrespondingSourceObject: {fileID: 23000012721121620, guid: 843b17ec9ed54754da9597b5bfa008ad,
    type: 2}
  m_PrefabInternal: {fileID: 497895361}
  m_GameObject: {fileID: 1957443155}
  m_Enabled: 1
  m_CastShadows: 1
  m_ReceiveShadows: 1
  m_DynamicOccludee: 1
  m_MotionVectors: 1
  m_LightProbeUsage: 1
  m_ReflectionProbeUsage: 1
  m_RenderingLayerMask: 4294967295
  m_Materials:
  - {fileID: 2100000, guid: b1bac660421f11c49a4f371aa1c78073, type: 2}
  m_StaticBatchInfo:
    firstSubMesh: 0
    subMeshCount: 0
  m_StaticBatchRoot: {fileID: 0}
  m_ProbeAnchor: {fileID: 0}
  m_LightProbeVolumeOverride: {fileID: 0}
  m_ScaleInLightmap: 1
  m_PreserveUVs: 0
  m_IgnoreNormalsForChartDetection: 0
  m_ImportantGI: 0
  m_StitchLightmapSeams: 0
  m_SelectedEditorRenderState: 3
  m_MinimumChartSize: 4
  m_AutoUVMaxDistance: 0.5
  m_AutoUVMaxAngle: 89
  m_LightmapParameters: {fileID: 0}
  m_SortingLayerID: 0
  m_SortingLayer: 0
  m_SortingOrder: 0
--- !u!33 &1957443157
MeshFilter:
  m_ObjectHideFlags: 0
  m_CorrespondingSourceObject: {fileID: 33000010450248858, guid: 843b17ec9ed54754da9597b5bfa008ad,
    type: 2}
  m_PrefabInternal: {fileID: 497895361}
  m_GameObject: {fileID: 1957443155}
  m_Mesh: {fileID: 4300002, guid: 6f6b397918ef75c499a826247372b18c, type: 3}
--- !u!4 &1957443158
Transform:
  m_ObjectHideFlags: 0
  m_CorrespondingSourceObject: {fileID: 4000010987358744, guid: 843b17ec9ed54754da9597b5bfa008ad,
    type: 2}
  m_PrefabInternal: {fileID: 497895361}
  m_GameObject: {fileID: 1957443155}
  m_LocalRotation: {x: 0, y: 0, z: 0, w: 1}
  m_LocalPosition: {x: 0, y: 0, z: 2.61}
  m_LocalScale: {x: 1, y: 1, z: 1}
  m_Children: []
  m_Father: {fileID: 0}
  m_RootOrder: 10
  m_LocalEulerAnglesHint: {x: 0, y: 0, z: 0}
--- !u!1 &1962564345
GameObject:
  m_ObjectHideFlags: 0
  m_CorrespondingSourceObject: {fileID: 1000010325142840, guid: 170847126cb058a4692a754a819e0a47,
    type: 2}
  m_PrefabInternal: {fileID: 1934055766}
  serializedVersion: 6
  m_Component:
  - component: {fileID: 1962564348}
  - component: {fileID: 1962564347}
  - component: {fileID: 1962564346}
  m_Layer: 0
  m_Name: Body
  m_TagString: Untagged
  m_Icon: {fileID: 0}
  m_NavMeshLayer: 0
  m_StaticEditorFlags: 0
  m_IsActive: 1
--- !u!23 &1962564346
MeshRenderer:
  m_ObjectHideFlags: 0
  m_CorrespondingSourceObject: {fileID: 23000011468702166, guid: 170847126cb058a4692a754a819e0a47,
    type: 2}
  m_PrefabInternal: {fileID: 1934055766}
  m_GameObject: {fileID: 1962564345}
  m_Enabled: 1
  m_CastShadows: 1
  m_ReceiveShadows: 1
  m_DynamicOccludee: 1
  m_MotionVectors: 1
  m_LightProbeUsage: 1
  m_ReflectionProbeUsage: 1
  m_RenderingLayerMask: 4294967295
  m_Materials:
  - {fileID: 2100000, guid: b1bac660421f11c49a4f371aa1c78073, type: 2}
  m_StaticBatchInfo:
    firstSubMesh: 0
    subMeshCount: 0
  m_StaticBatchRoot: {fileID: 0}
  m_ProbeAnchor: {fileID: 0}
  m_LightProbeVolumeOverride: {fileID: 0}
  m_ScaleInLightmap: 1
  m_PreserveUVs: 0
  m_IgnoreNormalsForChartDetection: 0
  m_ImportantGI: 0
  m_StitchLightmapSeams: 0
  m_SelectedEditorRenderState: 3
  m_MinimumChartSize: 4
  m_AutoUVMaxDistance: 0.5
  m_AutoUVMaxAngle: 89
  m_LightmapParameters: {fileID: 0}
  m_SortingLayerID: 0
  m_SortingLayer: 0
  m_SortingOrder: 0
--- !u!33 &1962564347
MeshFilter:
  m_ObjectHideFlags: 0
  m_CorrespondingSourceObject: {fileID: 33000012596208986, guid: 170847126cb058a4692a754a819e0a47,
    type: 2}
  m_PrefabInternal: {fileID: 1934055766}
  m_GameObject: {fileID: 1962564345}
  m_Mesh: {fileID: 4300004, guid: 6f6b397918ef75c499a826247372b18c, type: 3}
--- !u!4 &1962564348
Transform:
  m_ObjectHideFlags: 0
  m_CorrespondingSourceObject: {fileID: 4000011438151066, guid: 170847126cb058a4692a754a819e0a47,
    type: 2}
  m_PrefabInternal: {fileID: 1934055766}
  m_GameObject: {fileID: 1962564345}
  m_LocalRotation: {x: 0, y: 0, z: 0, w: 1}
  m_LocalPosition: {x: 0, y: 0, z: 0}
  m_LocalScale: {x: 1, y: 1, z: 1}
  m_Children: []
  m_Father: {fileID: 0}
  m_RootOrder: 12
  m_LocalEulerAnglesHint: {x: 0, y: 0, z: 0}
--- !u!1001 &1985663361
Prefab:
  m_ObjectHideFlags: 0
  serializedVersion: 2
  m_Modification:
    m_TransformParent: {fileID: 0}
    m_Modifications:
    - target: {fileID: 4000010228546632, guid: dd0d299dd6988e749907b7b8fe39768a, type: 2}
      propertyPath: m_LocalPosition.x
      value: -1.5
      objectReference: {fileID: 0}
    - target: {fileID: 4000010228546632, guid: dd0d299dd6988e749907b7b8fe39768a, type: 2}
      propertyPath: m_LocalPosition.y
      value: 0
      objectReference: {fileID: 0}
    - target: {fileID: 4000010228546632, guid: dd0d299dd6988e749907b7b8fe39768a, type: 2}
      propertyPath: m_LocalPosition.z
      value: -0.37
      objectReference: {fileID: 0}
    - target: {fileID: 4000010228546632, guid: dd0d299dd6988e749907b7b8fe39768a, type: 2}
      propertyPath: m_LocalRotation.x
      value: 0
      objectReference: {fileID: 0}
    - target: {fileID: 4000010228546632, guid: dd0d299dd6988e749907b7b8fe39768a, type: 2}
      propertyPath: m_LocalRotation.y
      value: 0
      objectReference: {fileID: 0}
    - target: {fileID: 4000010228546632, guid: dd0d299dd6988e749907b7b8fe39768a, type: 2}
      propertyPath: m_LocalRotation.z
      value: 0
      objectReference: {fileID: 0}
    - target: {fileID: 4000010228546632, guid: dd0d299dd6988e749907b7b8fe39768a, type: 2}
      propertyPath: m_LocalRotation.w
      value: 1
      objectReference: {fileID: 0}
    - target: {fileID: 4000010228546632, guid: dd0d299dd6988e749907b7b8fe39768a, type: 2}
      propertyPath: m_RootOrder
      value: 2
      objectReference: {fileID: 0}
    m_RemovedComponents: []
  m_SourcePrefab: {fileID: 100100000, guid: dd0d299dd6988e749907b7b8fe39768a, type: 2}
  m_RootGameObject: {fileID: 1590541172}
  m_IsPrefabAsset: 0
--- !u!1001 &2022544493
Prefab:
  m_ObjectHideFlags: 0
  serializedVersion: 2
  m_Modification:
    m_TransformParent: {fileID: 0}
    m_Modifications:
    - target: {fileID: 4000011395859806, guid: 7ba836a4e34305a4ba0a9d20da5d4735, type: 2}
      propertyPath: m_LocalPosition.x
      value: 1.5
      objectReference: {fileID: 0}
    - target: {fileID: 4000011395859806, guid: 7ba836a4e34305a4ba0a9d20da5d4735, type: 2}
      propertyPath: m_LocalPosition.y
      value: 0
      objectReference: {fileID: 0}
    - target: {fileID: 4000011395859806, guid: 7ba836a4e34305a4ba0a9d20da5d4735, type: 2}
      propertyPath: m_LocalPosition.z
      value: -0.37
      objectReference: {fileID: 0}
    - target: {fileID: 4000011395859806, guid: 7ba836a4e34305a4ba0a9d20da5d4735, type: 2}
      propertyPath: m_LocalRotation.x
      value: 0
      objectReference: {fileID: 0}
    - target: {fileID: 4000011395859806, guid: 7ba836a4e34305a4ba0a9d20da5d4735, type: 2}
      propertyPath: m_LocalRotation.y
      value: 0
      objectReference: {fileID: 0}
    - target: {fileID: 4000011395859806, guid: 7ba836a4e34305a4ba0a9d20da5d4735, type: 2}
      propertyPath: m_LocalRotation.z
      value: 0
      objectReference: {fileID: 0}
    - target: {fileID: 4000011395859806, guid: 7ba836a4e34305a4ba0a9d20da5d4735, type: 2}
      propertyPath: m_LocalRotation.w
      value: 1
      objectReference: {fileID: 0}
    - target: {fileID: 4000011395859806, guid: 7ba836a4e34305a4ba0a9d20da5d4735, type: 2}
      propertyPath: m_RootOrder
      value: 1
      objectReference: {fileID: 0}
    m_RemovedComponents: []
  m_SourcePrefab: {fileID: 100100000, guid: 7ba836a4e34305a4ba0a9d20da5d4735, type: 2}
  m_RootGameObject: {fileID: 1524769237}
  m_IsPrefabAsset: 0
--- !u!1 &2026504656
GameObject:
  m_ObjectHideFlags: 0
  m_CorrespondingSourceObject: {fileID: 1000013917916318, guid: 7f3b0af4173f85d42a0b50107ac8eeae,
    type: 2}
  m_PrefabInternal: {fileID: 977479883}
  serializedVersion: 6
  m_Component:
  - component: {fileID: 2026504659}
  - component: {fileID: 2026504658}
  - component: {fileID: 2026504657}
  m_Layer: 0
  m_Name: Tertiary_Wing_Left
  m_TagString: Untagged
  m_Icon: {fileID: 0}
  m_NavMeshLayer: 0
  m_StaticEditorFlags: 0
  m_IsActive: 1
--- !u!23 &2026504657
MeshRenderer:
  m_ObjectHideFlags: 0
  m_CorrespondingSourceObject: {fileID: 23000011381635170, guid: 7f3b0af4173f85d42a0b50107ac8eeae,
    type: 2}
  m_PrefabInternal: {fileID: 977479883}
  m_GameObject: {fileID: 2026504656}
  m_Enabled: 1
  m_CastShadows: 1
  m_ReceiveShadows: 1
  m_DynamicOccludee: 1
  m_MotionVectors: 1
  m_LightProbeUsage: 1
  m_ReflectionProbeUsage: 1
  m_RenderingLayerMask: 4294967295
  m_Materials:
  - {fileID: 2100000, guid: b1bac660421f11c49a4f371aa1c78073, type: 2}
  m_StaticBatchInfo:
    firstSubMesh: 0
    subMeshCount: 0
  m_StaticBatchRoot: {fileID: 0}
  m_ProbeAnchor: {fileID: 0}
  m_LightProbeVolumeOverride: {fileID: 0}
  m_ScaleInLightmap: 1
  m_PreserveUVs: 0
  m_IgnoreNormalsForChartDetection: 0
  m_ImportantGI: 0
  m_StitchLightmapSeams: 0
  m_SelectedEditorRenderState: 3
  m_MinimumChartSize: 4
  m_AutoUVMaxDistance: 0.5
  m_AutoUVMaxAngle: 89
  m_LightmapParameters: {fileID: 0}
  m_SortingLayerID: 0
  m_SortingLayer: 0
  m_SortingOrder: 0
--- !u!33 &2026504658
MeshFilter:
  m_ObjectHideFlags: 0
  m_CorrespondingSourceObject: {fileID: 33000014082740924, guid: 7f3b0af4173f85d42a0b50107ac8eeae,
    type: 2}
  m_PrefabInternal: {fileID: 977479883}
  m_GameObject: {fileID: 2026504656}
  m_Mesh: {fileID: 4300022, guid: 6f6b397918ef75c499a826247372b18c, type: 3}
--- !u!4 &2026504659
Transform:
  m_ObjectHideFlags: 0
  m_CorrespondingSourceObject: {fileID: 4000011835905154, guid: 7f3b0af4173f85d42a0b50107ac8eeae,
    type: 2}
  m_PrefabInternal: {fileID: 977479883}
  m_GameObject: {fileID: 2026504656}
  m_LocalRotation: {x: 0, y: 0, z: 0, w: 1}
  m_LocalPosition: {x: -1.5, y: 0, z: -3.65}
  m_LocalScale: {x: 1, y: 1, z: 1}
  m_Children: []
  m_Father: {fileID: 0}
  m_RootOrder: 7
  m_LocalEulerAnglesHint: {x: 0, y: 0, z: 0}
