%YAML 1.1
%TAG !u! tag:unity3d.com,2011:
--- !u!1045 &1
EditorBuildSettings:
  m_ObjectHideFlags: 0
  serializedVersion: 2
  m_Scenes:
  - enabled: 1
    path: Assets/Scenes/SplashScreen.unity
    guid: 2cda990e2423bbf4892e6590ba056729
  - enabled: 1
    path: Assets/Scenes/Start Screen.unity
    guid: 7d3a43681c1e6e04aa3fd77b1671e9ef
  - enabled: 1
    path: Assets/Scenes/Level1.unity
    guid: 2539a1c4065813b459edf36de12a1112
  - enabled: 1
    path: Assets/Scenes/Restart  Screen.unity
    guid: f6d5aa9b36948f644a98478806b63c81
  m_configObjects: {}
