%YAML 1.1
%TAG !u! tag:unity3d.com,2011:
--- !u!114 &11400000
MonoBehaviour:
  m_ObjectHideFlags: 0
  m_CorrespondingSourceObject: {fileID: 0}
  m_PrefabInternal: {fileID: 0}
  m_GameObject: {fileID: 0}
  m_Enabled: 1
  m_EditorHideFlags: 0
  m_Script: {fileID: 11500000, guid: 59f949f747473fe4e9f69bf540d740e6, type: 3}
  m_Name: Wave 3
  m_EditorClassIdentifier: 
  enemyPrefub: {fileID: 1801672855170948, guid: 03098f8aab948b047a8801498883478b,
    type: 2}
  pathPrefab: {fileID: 1154660669863272, guid: eff54c47beed53042956221a7dcf3cd7, type: 2}
  timeBetweenSpawns: 0.7
  spawnRandomFactor: 1.9
  numberOfEnemies: 3
  moveSpeed: 3.1
