%YAML 1.1
%TAG !u! tag:unity3d.com,2011:
--- !u!114 &11400000
MonoBehaviour:
  m_ObjectHideFlags: 0
  m_CorrespondingSourceObject: {fileID: 0}
  m_PrefabInternal: {fileID: 0}
  m_GameObject: {fileID: 0}
  m_Enabled: 1
  m_EditorHideFlags: 0
  m_Script: {fileID: 11500000, guid: 59f949f747473fe4e9f69bf540d740e6, type: 3}
  m_Name: Wave 2
  m_EditorClassIdentifier: 
  enemyPrefub: {fileID: 1492578943000350, guid: 155581b4cde61924cb81170eddf29972,
    type: 2}
  pathPrefab: {fileID: 1172160800226744, guid: 8154c16f6b53b9845b83e46af25087df, type: 2}
  timeBetweenSpawns: 0.8
  spawnRandomFactor: 0.6
  numberOfEnemies: 3
  moveSpeed: 2.5
