%YAML 1.1
%TAG !u! tag:unity3d.com,2011:
--- !u!74 &7400000
AnimationClip:
  m_ObjectHideFlags: 0
  m_CorrespondingSourceObject: {fileID: 0}
  m_PrefabInstance: {fileID: 0}
  m_PrefabAsset: {fileID: 0}
  m_Name: SkeletonSlice2
  serializedVersion: 6
  m_Legacy: 0
  m_Compressed: 0
  m_UseHighQualityCurve: 1
  m_RotationCurves: []
  m_CompressedRotationCurves: []
  m_EulerCurves: []
  m_PositionCurves: []
  m_ScaleCurves: []
  m_FloatCurves:
  - curve:
      serializedVersion: 2
      m_Curve:
      - serializedVersion: 3
        time: 0
        value: 1
        inSlope: 0
        outSlope: 0
        tangentMode: 136
        weightedMode: 0
        inWeight: 0.33333334
        outWeight: 0.33333334
      - serializedVersion: 3
        time: 0.4375
        value: 1
        inSlope: 0
        outSlope: 0
        tangentMode: 136
        weightedMode: 0
        inWeight: 0.33333334
        outWeight: 0.33333334
      - serializedVersion: 3
        time: 0.46875
        value: 0
        inSlope: 0
        outSlope: 0
        tangentMode: 136
        weightedMode: 0
        inWeight: 0.33333334
        outWeight: 0.33333334
      m_PreInfinity: 2
      m_PostInfinity: 2
      m_RotationOrder: 4
    attribute: m_Color.a
    path: 
    classID: 212
    script: {fileID: 0}
  m_PPtrCurves:
  - curve:
    - time: 0
      value: {fileID: 21300000, guid: dc92a36ce6bd95a409b824c8f96b20a5, type: 3}
    - time: 0.03125
      value: {fileID: 21300002, guid: dc92a36ce6bd95a409b824c8f96b20a5, type: 3}
    - time: 0.0625
      value: {fileID: 21300004, guid: dc92a36ce6bd95a409b824c8f96b20a5, type: 3}
    - time: 0.09375
      value: {fileID: 21300006, guid: dc92a36ce6bd95a409b824c8f96b20a5, type: 3}
    - time: 0.125
      value: {fileID: 21300008, guid: dc92a36ce6bd95a409b824c8f96b20a5, type: 3}
    - time: 0.15625
      value: {fileID: 21300010, guid: dc92a36ce6bd95a409b824c8f96b20a5, type: 3}
    - time: 0.1875
      value: {fileID: 21300012, guid: dc92a36ce6bd95a409b824c8f96b20a5, type: 3}
    - time: 0.21875
      value: {fileID: 21300014, guid: dc92a36ce6bd95a409b824c8f96b20a5, type: 3}
    - time: 0.25
      value: {fileID: 21300016, guid: dc92a36ce6bd95a409b824c8f96b20a5, type: 3}
    - time: 0.28125
      value: {fileID: 21300018, guid: dc92a36ce6bd95a409b824c8f96b20a5, type: 3}
    - time: 0.3125
      value: {fileID: 21300020, guid: dc92a36ce6bd95a409b824c8f96b20a5, type: 3}
    - time: 0.34375
      value: {fileID: 21300022, guid: dc92a36ce6bd95a409b824c8f96b20a5, type: 3}
    - time: 0.375
      value: {fileID: 21300024, guid: dc92a36ce6bd95a409b824c8f96b20a5, type: 3}
    - time: 0.40625
      value: {fileID: 21300026, guid: dc92a36ce6bd95a409b824c8f96b20a5, type: 3}
    - time: 0.4375
      value: {fileID: 21300028, guid: dc92a36ce6bd95a409b824c8f96b20a5, type: 3}
    attribute: m_Sprite
    path: 
    classID: 212
    script: {fileID: 0}
  m_SampleRate: 32
  m_WrapMode: 0
  m_Bounds:
    m_Center: {x: 0, y: 0, z: 0}
    m_Extent: {x: 0, y: 0, z: 0}
  m_ClipBindingConstant:
    genericBindings:
    - serializedVersion: 2
      path: 0
      attribute: 304273561
      script: {fileID: 0}
      typeID: 212
      customType: 0
      isPPtrCurve: 0
    - serializedVersion: 2
      path: 0
      attribute: 0
      script: {fileID: 0}
      typeID: 212
      customType: 23
      isPPtrCurve: 1
    pptrCurveMapping:
    - {fileID: 21300000, guid: dc92a36ce6bd95a409b824c8f96b20a5, type: 3}
    - {fileID: 21300002, guid: dc92a36ce6bd95a409b824c8f96b20a5, type: 3}
    - {fileID: 21300004, guid: dc92a36ce6bd95a409b824c8f96b20a5, type: 3}
    - {fileID: 21300006, guid: dc92a36ce6bd95a409b824c8f96b20a5, type: 3}
    - {fileID: 21300008, guid: dc92a36ce6bd95a409b824c8f96b20a5, type: 3}
    - {fileID: 21300010, guid: dc92a36ce6bd95a409b824c8f96b20a5, type: 3}
    - {fileID: 21300012, guid: dc92a36ce6bd95a409b824c8f96b20a5, type: 3}
    - {fileID: 21300014, guid: dc92a36ce6bd95a409b824c8f96b20a5, type: 3}
    - {fileID: 21300016, guid: dc92a36ce6bd95a409b824c8f96b20a5, type: 3}
    - {fileID: 21300018, guid: dc92a36ce6bd95a409b824c8f96b20a5, type: 3}
    - {fileID: 21300020, guid: dc92a36ce6bd95a409b824c8f96b20a5, type: 3}
    - {fileID: 21300022, guid: dc92a36ce6bd95a409b824c8f96b20a5, type: 3}
    - {fileID: 21300024, guid: dc92a36ce6bd95a409b824c8f96b20a5, type: 3}
    - {fileID: 21300026, guid: dc92a36ce6bd95a409b824c8f96b20a5, type: 3}
    - {fileID: 21300028, guid: dc92a36ce6bd95a409b824c8f96b20a5, type: 3}
  m_AnimationClipSettings:
    serializedVersion: 2
    m_AdditiveReferencePoseClip: {fileID: 0}
    m_AdditiveReferencePoseTime: 0
    m_StartTime: 0
    m_StopTime: 0.46875
    m_OrientationOffsetY: 0
    m_Level: 0
    m_CycleOffset: 0
    m_HasAdditiveReferencePose: 0
    m_LoopTime: 0
    m_LoopBlend: 0
    m_LoopBlendOrientation: 0
    m_LoopBlendPositionY: 0
    m_LoopBlendPositionXZ: 0
    m_KeepOriginalOrientation: 0
    m_KeepOriginalPositionY: 1
    m_KeepOriginalPositionXZ: 0
    m_HeightFromFeet: 0
    m_Mirror: 0
  m_EditorCurves:
  - curve:
      serializedVersion: 2
      m_Curve:
      - serializedVersion: 3
        time: 0
        value: 1
        inSlope: 0
        outSlope: 0
        tangentMode: 136
        weightedMode: 0
        inWeight: 0.33333334
        outWeight: 0.33333334
      - serializedVersion: 3
        time: 0.4375
        value: 1
        inSlope: 0
        outSlope: 0
        tangentMode: 136
        weightedMode: 0
        inWeight: 0.33333334
        outWeight: 0.33333334
      - serializedVersion: 3
        time: 0.46875
        value: 0
        inSlope: 0
        outSlope: 0
        tangentMode: 136
        weightedMode: 0
        inWeight: 0.33333334
        outWeight: 0.33333334
      m_PreInfinity: 2
      m_PostInfinity: 2
      m_RotationOrder: 4
    attribute: m_Color.a
    path: 
    classID: 212
    script: {fileID: 0}
  m_EulerEditorCurves: []
  m_HasGenericRootTransform: 0
  m_HasMotionFloatCurves: 0
  m_Events: []
