%YAML 1.1
%TAG !u! tag:unity3d.com,2011:
--- !u!74 &7400000
AnimationClip:
  m_ObjectHideFlags: 0
  m_CorrespondingSourceObject: {fileID: 0}
  m_PrefabInstance: {fileID: 0}
  m_PrefabAsset: {fileID: 0}
  m_Name: Wizard
  serializedVersion: 6
  m_Legacy: 0
  m_Compressed: 0
  m_UseHighQualityCurve: 1
  m_RotationCurves: []
  m_CompressedRotationCurves: []
  m_EulerCurves: []
  m_PositionCurves: []
  m_ScaleCurves: []
  m_FloatCurves: []
  m_PPtrCurves:
  - curve:
    - time: 0
      value: {fileID: 21300000, guid: 2436fb63e8da1f94a84e813e0ab1e55c, type: 3}
    - time: 0.16666667
      value: {fileID: 21300000, guid: 3c6e6700387acdc43b9d287fb775d58d, type: 3}
    - time: 0.33333334
      value: {fileID: 21300000, guid: 670ca8e00da81e742b95311f8d1dea5d, type: 3}
    - time: 0.5
      value: {fileID: 21300000, guid: 40a26bf819d9213479fd2e7f94275993, type: 3}
    - time: 0.6666667
      value: {fileID: 21300000, guid: ebdb909085ee07f44b3d1d4f59868122, type: 3}
    - time: 0.8333333
      value: {fileID: 21300000, guid: 6b2e541cf130de64680438d8dffd32e2, type: 3}
    attribute: m_Sprite
    path: Body
    classID: 212
    script: {fileID: 0}
  m_SampleRate: 6
  m_WrapMode: 0
  m_Bounds:
    m_Center: {x: 0, y: 0, z: 0}
    m_Extent: {x: 0, y: 0, z: 0}
  m_ClipBindingConstant:
    genericBindings:
    - serializedVersion: 2
      path: 2073732236
      attribute: 0
      script: {fileID: 0}
      typeID: 212
      customType: 23
      isPPtrCurve: 1
    pptrCurveMapping:
    - {fileID: 21300000, guid: 2436fb63e8da1f94a84e813e0ab1e55c, type: 3}
    - {fileID: 21300000, guid: 3c6e6700387acdc43b9d287fb775d58d, type: 3}
    - {fileID: 21300000, guid: 670ca8e00da81e742b95311f8d1dea5d, type: 3}
    - {fileID: 21300000, guid: 40a26bf819d9213479fd2e7f94275993, type: 3}
    - {fileID: 21300000, guid: ebdb909085ee07f44b3d1d4f59868122, type: 3}
    - {fileID: 21300000, guid: 6b2e541cf130de64680438d8dffd32e2, type: 3}
  m_AnimationClipSettings:
    serializedVersion: 2
    m_AdditiveReferencePoseClip: {fileID: 0}
    m_AdditiveReferencePoseTime: 0
    m_StartTime: 0
    m_StopTime: 1
    m_OrientationOffsetY: 0
    m_Level: 0
    m_CycleOffset: 0
    m_HasAdditiveReferencePose: 0
    m_LoopTime: 1
    m_LoopBlend: 0
    m_LoopBlendOrientation: 0
    m_LoopBlendPositionY: 0
    m_LoopBlendPositionXZ: 0
    m_KeepOriginalOrientation: 0
    m_KeepOriginalPositionY: 1
    m_KeepOriginalPositionXZ: 0
    m_HeightFromFeet: 0
    m_Mirror: 0
  m_EditorCurves: []
  m_EulerEditorCurves: []
  m_HasGenericRootTransform: 0
  m_HasMotionFloatCurves: 0
  m_Events:
  - time: 0.6666667
    functionName: ShowSlice
    data: 
    objectReferenceParameter: {fileID: 0}
    floatParameter: 0
    intParameter: 0
    messageOptions: 0
