%YAML 1.1
%TAG !u! tag:unity3d.com,2011:
--- !u!1045 &1
EditorBuildSettings:
  m_ObjectHideFlags: 0
  serializedVersion: 2
  m_Scenes:
  - enabled: 1
    path: Assets/Levels/Main Menu.unity
    guid: 51652a67a1bbbc04c984132d0e6901d8
  - enabled: 1
    path: Assets/Levels/Level 1.unity
    guid: 2cda990e2423bbf4892e6590ba056729
  - enabled: 1
    path: Assets/Levels/Level 2.unity
    guid: f6e1cb6236ced36419b7fc6c684fcf06
  - enabled: 1
    path: Assets/Levels/Finish Game.unity
    guid: 4519749aedce9d440ac3453d7c92cba0
  m_configObjects: {}
